<?xml version="1.0" encoding="UTF-8" standalone="no"?>
<svg
   xmlns:dc="http://purl.org/dc/elements/1.1/"
   xmlns:cc="http://creativecommons.org/ns#"
   xmlns:rdf="http://www.w3.org/1999/02/22-rdf-syntax-ns#"
   xmlns:svg="http://www.w3.org/2000/svg"
   xmlns="http://www.w3.org/2000/svg"
   xmlns:xlink="http://www.w3.org/1999/xlink"
   id="svg2383"
   version="1.1"
   viewBox="0 0 243.91165 205.06802"
   height="205.06802mm"
   width="243.91165mm">
  <defs
     id="defs2377">
    <radialGradient
       r="29.036913"
       fy="132.28575"
       fx="61.518883"
       cy="132.28575"
       cx="61.518883"
       gradientTransform="matrix(8.3503742e-8,-1.1455587,5.0352133,1.810166e-6,-1721.7516,365.8729)"
       gradientUnits="userSpaceOnUse"
       id="radialGradient1480"
       xlink:href="#linearGradient2795" />
    <linearGradient
       id="linearGradient2795">
      <stop
         id="stop2797"
         offset="0"
         style="stop-color:#b8b8b8;stop-opacity:0.49803922;" />
      <stop
         id="stop2799"
         offset="1"
         style="stop-color:#7f7f7f;stop-opacity:0;" />
    </linearGradient>
  </defs>
  <metadata
     id="metadata2380">
    <rdf:RDF>
      <cc:Work
         rdf:about="">
        <dc:format>image/svg+xml</dc:format>
        <dc:type
           rdf:resource="http://purl.org/dc/dcmitype/StillImage" />
        <dc:title></dc:title>
      </cc:Work>
    </rdf:RDF>
  </metadata>
  <g
     transform="translate(370.66415,83.724483)"
     id="layer1">
    <g
       transform="matrix(0.26458333,0,0,0.26458333,-706.05189,-215.74708)"
       id="g2216">
      <g
         id="g2120"
         transform="translate(512,498.98305)">
        <path
           style="fill:#4e4e4e;fill-opacity:1"
           id="path2"
           d="m 1004.5426,160 c -6.59997,0 -11.99997,-5.4 -11.99997,-12 v -40 c 0,-6.6 5.4,-12 11.99997,-12 h 20 V 48 c 0,-26.5 21.5,-48 48,-48 h 320 c 26.5,0 48,21.5 48,48 v 416 c 0,26.5 -21.5,48 -48,48 h -320 c -26.5,0 -48,-21.5 -48,-48 v -48 h -20 c -6.59997,0 -11.99997,-5.4 -11.99997,-12 v -40 c 0,-6.6 5.4,-12 11.99997,-12 h 20 v -64 h -20 c -6.59997,0 -11.99997,-5.4 -11.99997,-12 v -40 c 0,-6.6 5.4,-12 11.99997,-12 h 20 v -64 z m 68,304 h 320 V 48 h -320 z" />
        <g
           transform="matrix(0.39872014,0,0,0.39872014,1653.5152,271.25349)"
           id="g1818">
          <path
             style="fill:#4e4e4e;fill-opacity:1;stroke-width:4.77421665"
             d="m -1059.9522,-314.26717 c -21.8831,0.10169 -42.7812,1.96798 -61.1696,5.2218 -54.1692,9.56991 -64.0041,29.60061 -64.0041,66.54064 v 48.78652 h 128.0087 v 16.26218 h -128.0087 -48.0406 c -37.203,0 -69.779,22.36104 -79.9681,64.8995 -11.7531,48.758881 -12.2745,79.185248 0,130.097397 9.0992,37.897013 30.8295,64.899456 68.0326,64.899504 h 44.0121 V 23.95622 c 0,-42.251386 36.5571,-79.520542 79.9681,-79.520542 h 127.85972 c 35.5913,0 64.0041,-29.304952 64.0041,-65.048698 v -121.89171 c 0,-34.69108 -29.26547,-60.75086 -64.0041,-66.54064 -21.99002,-3.66054 -44.80652,-5.32349 -66.69012,-5.2218 z m -69.2261,39.23809 c 13.2227,0 24.0205,10.9742 24.0205,24.46786 0,13.44577 -10.7978,24.31866 -24.0205,24.31866 -13.2695,-5e-5 -24.02,-10.87289 -24.02,-24.31866 0,-13.49366 10.7505,-24.46786 24.02,-24.46786 z"
             id="path1948" />
          <path
             style="fill:#4e4e4e;fill-opacity:1;stroke-width:4.77421665"
             d="m -913.29396,-177.45603 v 56.84301 c 0,44.069597 -37.36254,81.16163 -79.96812,81.161678 h -127.85972 c -35.0227,0 -64.0041,29.9748225 -64.0041,65.048699 V 147.48902 c 0,34.69113 30.1664,55.09603 64.0041,65.04875 40.5207,11.91458 79.3775,14.06785 127.85972,0 32.22643,-9.33068 64.0041,-28.10873 64.0041,-65.04875 V 98.702546 H -1057.1172 V 82.440371 h 127.85922 64.00457 c 37.20309,0 51.06598,-25.949824 64.0041,-64.899504 13.36495,-40.098119 12.79634,-78.65894 0,-130.097397 -9.1937,-37.03575 -26.75375,-64.8995 -64.0041,-64.8995 z m -71.91163,308.68292 c 13.26993,0 24.02003,10.87285 24.02003,24.31867 0,13.49361 -10.7501,24.46786 -24.02003,24.46786 -13.22267,0 -24.02051,-10.97425 -24.02051,-24.46786 0,-13.44582 10.79784,-24.31867 24.02051,-24.31867 z"
             id="path1950" />
          <ellipse
             ry="33.263454"
             rx="171.54227"
             cy="295.39966"
             cx="-1055.6652"
             style="opacity:0.44382025;fill:url(#radialGradient1480);fill-opacity:1;fill-rule:nonzero;stroke:none;stroke-width:73.60591888;stroke-miterlimit:4;stroke-dasharray:none;stroke-opacity:1"
             id="path1894" />
        </g>
      </g>
      <g
         aria-label="Notebook"
         style="font-style:normal;font-weight:normal;font-size:192px;line-height:125%;font-family:Sans;letter-spacing:0px;word-spacing:0px;fill:#4e4e4e;fill-opacity:1;stroke:#4e4e4e;stroke-width:7;stroke-linecap:round;stroke-linejoin:round;stroke-miterlimit:4;stroke-dasharray:none;stroke-opacity:1"
         id="text2124"
         transform="translate(-67.125385,15.727503)">
        <path
           d="m 1443.2992,1065.2158 q 0.5334,-0.2667 1.6,0.2667 1.0667,0.5333 1.3334,0.5333 h 2.4 q 6.1333,0.5333 12,1.0667 5.8666,0.2666 12,-0.2667 2.6666,-1.0667 6.9333,-0.5333 1.3333,0 2.6667,0.2666 1.6,0 2.9333,-0.2666 l 0.2667,-0.2667 v 0.2667 q 0.2666,0.5333 0.2666,1.3333 0,1.0667 -1.0666,1.6 -1.0667,0.5333 -1.3334,1.0667 0,6.1333 -0.8,12 -0.2666,2.9333 -0.5333,5.8666 -0.2667,2.9334 -0.2667,5.8667 0,5.8667 1.6,11.4667 0.2667,4.2666 0.2667,8.5333 0.2667,4.2667 0.8,8.2667 0.2667,4.5333 0.5333,8.8 0.2667,4.2666 0.2667,8.8 -0.2667,2.1333 -0.2667,4.2666 0,2.1334 -0.2666,4.2667 -0.2667,4.2667 -0.5334,8.5333 -0.2666,4.2667 -1.3333,8.5334 v 14.9333 q -0.2667,13.3333 -0.5333,26.1333 0,12.5334 -1.0667,26.6667 0,2.4 -0.8,4 -0.2667,1.0667 -0.5333,2.1333 -0.2667,0.8 -0.2667,1.8667 v 0.5333 0.2667 l -0.8,0.8 0.2667,0.2667 q 0.2666,0.2666 0.5333,0.2666 0.2667,0 0.2667,0.5334 0,0.5333 -0.2667,0.8 h -0.2667 q -1.3333,0.8 -3.4666,1.0666 -1.8667,0 -3.7334,0.2667 l -1.8666,0.2667 q -5.0667,-0.5334 -10.4,0 -5.0667,0.2666 -10.1334,0.8 -3.7333,0.5333 -7.7333,0.8 -4,0.2666 -7.7333,0.2666 h -0.8 l 0.5333,-0.8 q 0.5333,-1.0666 0.5333,-1.3333 0,-0.8 -1.3333,-2.1333 -1.3333,-1.6 -1.6,-2.9334 -4.8,-8.2666 -9.0667,-16.2666 -4,-8.2667 -7.7333,-16 l -2.9333,-8 q -3.2,-8 -6.4,-16 -2.9334,-8.2667 -5.3334,-16.2667 -0.8,-2.1333 -1.8666,-4.2667 -1.0667,-2.1333 -2.1334,-4.2666 -1.3333,-2.4 -2.4,-4.5334 -1.0666,-2.4 -2.1333,-5.0666 v 3.7333 q 0,1.0667 0.2667,2.1333 0.2666,7.7334 0.5333,16.2667 0.5333,8.2667 1.3333,15.4667 -0.2666,1.8666 -0.2666,3.7333 0,1.8667 0,3.7333 0,3.2 0,6.4 0.2666,2.9334 0.5333,6.1334 0.2667,2.9333 0.2667,6.1333 0.2666,3.2 0.2666,6.1333 0,2.1334 0,4.2667 0,2.1333 -0.5333,4.2667 -0.5333,3.7333 -0.8,6.6666 -0.2667,2.6667 -0.5333,4.8 -0.2667,1.8667 -0.2667,2.1334 1.3333,1.3333 1.3333,2.4 0,0.8 -0.5333,1.8666 v 0.2667 l -0.8,0.8 -0.2667,0.2667 q -5.3333,0.8 -10.4,0.8 -5.0666,0 -10.4,-0.2667 -4.2666,-0.2667 -8.7999,-0.5333 -4.2667,0 -9.0667,0.5333 l -5.0667,-0.5333 v -0.2667 q 0,-3.7333 -0.8,-7.4667 -0.5333,-3.7333 -1.0666,-7.4666 -0.8,-4.2667 -1.6,-8.5334 -0.5334,-4.5333 -0.5334,-9.0666 v -1.3334 l -0.2666,-7.2 q -0.8,-11.2 -1.6,-22.4 -0.5334,-11.2 -0.5334,-21.6 -0.8,-9.6 -0.8,-18.6666 0,-2.9334 0,-5.8667 0.2667,-3.2 0.2667,-6.1333 0,-2.9334 0,-5.8667 0.2667,-3.2 0.2667,-6.1333 0,-3.2 -0.2667,-6.1334 0,-3.2 -0.2667,-6.4 l -0.5333,-7.4666 q -0.5333,-6.1334 -1.0667,-11.7334 -0.5333,-5.6 -0.5333,-11.4666 v -4.8 l -0.2667,-0.2667 q -0.5333,-0.5333 -0.5333,-0.8 0,-0.5333 0.2667,-0.8 l 0.8,-0.5333 h 0.2666 q 8.5334,0.5333 16.8,0.2666 8.2667,-0.5333 16.2667,-1.0666 4.5333,-0.5334 8.8,-0.8 4.2666,-0.2667 8.8,-0.2667 1.8666,-0.5333 3.7333,-0.5333 2.1333,0 4.2667,-0.2667 2.9333,0 5.8666,0 2.9334,-0.2667 5.6,-1.0667 l 0.2667,-0.2666 0.2667,0.2666 q 0.8,0.5334 0.8,1.3334 0,0.5333 -0.8,1.3333 0,0.5333 -0.5334,1.0667 2.9334,8.2666 6.4,16 3.7334,7.7333 8.5334,16.2666 2.6666,4.5334 4.5333,9.3334 2.1333,4.8 4.2667,9.3333 1.8666,4.5333 3.7333,9.0667 2.1333,4.5333 4.5333,9.0666 0.2667,-0.2666 0.2667,-1.0666 0,-0.8 -0.5333,-1.8667 -0.5334,-1.6 -0.5334,-2.4 v -0.5333 -6.4 q 0,-8.5334 0.8,-17.3334 0.2667,-4.2666 0.2667,-8.5333 0.2667,-4.2667 0.2667,-8.5333 0.5333,-2.4 0.5333,-4.5334 0.2667,-2.4 0.2667,-4.5333 0,-2.1333 0,-4.5333 0,-2.4 -0.2667,-4.5334 -0.2667,-1.8666 -0.2667,-3.4666 0,-1.8667 -0.2666,-3.7334 0.5333,-1.3333 1.0666,-1.3333 z m -93.3333,172.5333 q 0,0.5334 0.2667,1.0667 0.2667,0.5333 0.2667,1.0667 0,0.2666 0.2666,0.8 v -0.2667 q 0,-0.2667 0,-0.2667 0.2667,-0.2666 0.2667,-0.5333 0.2667,-1.3333 0.2667,-2.4 0,-1.3333 0,-2.6667 0,-3.7333 -0.2667,-7.2 -0.2667,-3.4666 -0.5333,-7.2 -0.5334,-2.6666 -0.8,-5.0666 0,-2.6667 -0.2667,-5.6 -0.5333,-4.5334 -0.8,-9.3334 -0.2667,-5.0666 -0.2667,-9.8666 v -7.4667 q 0,-1.8667 0,-3.4667 0.2667,-1.8666 0.2667,-3.7333 0,-1.3333 0,-2.4 0,-1.0667 -0.2667,-2.4 0,-4.5333 -0.2666,-8.5333 -0.2667,-4.2667 -0.5334,-8.2667 -0.5333,-6.1333 -0.8,-11.7333 -0.2666,-5.8667 -0.2666,-12 v -3.4667 l -0.2667,-12.8 q 0,-5.6 -0.2667,-10.9333 0,-5.3334 0,-10.6667 0,-4 0,-7.7333 0,-4 0.2667,-8 -1.3333,-0.8 -2.4,-1.6 -1.0667,-0.8 -2.4,-1.8667 v 1.3333 q 0,6.1334 0.5333,12.2667 0.5334,6.1333 1.0667,12.2667 0.5333,4.8 0.8,9.8666 0.5333,4.8 0.5333,9.8667 0,1.3333 -0.2666,2.9333 0,1.3334 0,2.6667 -0.8,5.3333 -0.8,11.2 0,2.1333 0,4 0.2666,1.8667 0.5333,4 l 0.8,18.1333 v 7.2 q 0,9.6 0.5333,18.6667 0.5334,9.0667 1.3334,18.4 l 0.8,12.5333 q 0,5.0667 0.8,9.8667 0.8,4.5333 1.8666,9.3333 z m 33.0667,-167.2 q -9.3334,0.5334 -19.4667,1.0667 -9.8666,0.5333 -19.2,0.5333 2.1334,1.8667 4.5334,2.1334 3.4666,-0.8 6.9333,-1.0667 3.4667,-0.2667 6.9333,-0.2667 3.4667,0 6.9333,0 3.4667,-0.2666 6.9334,-1.0666 v -0.2667 l 0.2666,0.2667 q 1.0667,1.0666 1.8667,0.5333 l 0.2667,-0.2667 v 0.2667 q 1.8666,0.5333 3.7333,0.5333 1.8667,-0.2666 4,-0.5333 2.1333,-0.2667 4,-0.2667 2.1333,-0.2666 4.2667,0.2667 h 0.2666 v 0.2667 h 1.6 q 1.6,0 2.9334,0 1.6,0 3.2,-0.5334 2.4,-1.3333 3.2,-3.2 -2.4,-0.2666 -5.0667,0 -2.4,0.2667 -5.0667,0.5334 -1.3333,0.2666 -2.9333,0.5333 -1.6,0 -2.9333,0.2667 z m 82.6666,3.4667 q -2.9333,-0.5333 -6.1333,-0.8 -2.9333,-0.2667 -6.1333,0.8 -1.3334,2.9333 -1.6,6.1333 -0.2667,2.9334 -0.2667,5.8667 0,1.3333 0,2.6667 0,1.3333 0.2667,2.6666 v 5.0667 q 0,2.9333 -0.2667,4.2667 -0.2667,5.3333 -0.5333,10.9333 0,5.3333 -0.5334,10.6667 -0.5333,9.0666 -1.0666,18.1333 -0.2667,8.8 -0.5334,17.0667 v 0.2666 l -1.6,2.1334 h -0.2666 q -1.3334,-0.2667 -1.6,-1.0667 -0.2667,-0.8 -0.5334,-1.3333 -0.5333,-1.3334 -0.8,-1.6 h -0.2666 q 0,-0.5334 -1.0667,-1.6 -1.0667,-1.6 -1.0667,-2.1334 -2.1333,-1.8666 -3.4666,-4 -1.0667,-2.4 -2.1334,-4.8 -0.5333,-1.6 -1.3333,-2.9333 -0.8,-1.6 -1.6,-2.9333 -17.3333,-24.5334 -25.0667,-48.2667 l -0.8,-3.4667 q -1.3333,-5.8666 -3.4666,-10.1333 -1.3334,0.2667 -2.6667,0.2667 -1.3333,0 -2.6667,0 -1.6,0 -3.2,0 -1.6,-0.2667 -3.2,0.2666 l -0.5333,0.2667 v -1.0667 q -1.8667,-0.5333 -3.7333,-0.2666 -1.6,0.2666 -3.7334,0.8 -2.6666,0.5333 -5.3333,0.8 -2.4,0.2666 -4.5333,-1.6 -5.6,0.8 -11.2,0.8 -3.2,0.2666 -6.4,0.5333 -3.2,0 -6.4,0.5333 -0.2667,0.2667 -0.8,0.5334 -0.2667,0.2666 -0.5333,0.5333 v 6.1333 10.1334 q 0.2666,2.6666 0.2666,5.3333 0,2.4 0,5.0667 0,3.7333 -0.2666,7.4666 0,3.7334 -0.2667,7.4667 0.5333,2.6667 0.5333,5.6 0.2667,2.9333 0.2667,6.1333 v 4 4.2667 4 q 1.3333,7.2 1.3333,14.6667 0.2667,7.2 0.2667,14.1333 v 6.6667 6.9333 q 0,6.9333 0.2667,14.4 0.2666,7.2 1.3333,14.6667 0.8,4.8 1.3333,10.1333 0.5334,5.3333 0.5334,10.1333 0.2666,0 0.2666,0.5334 0.2667,0.2666 0.5334,0.5333 3.7333,0 8.2666,0.2667 4.8,0 9.6,-0.5334 v -0.2666 l 0.2667,0.2666 q 2.9333,1.6 6.1333,1.0667 3.2,-0.5333 5.6,-2.1333 -0.5333,-2.6667 -0.5333,-4.2667 0,-2.6667 0.2666,-4 v -1.3333 q 0.2667,-3.7334 0.2667,-7.7334 0,-4 0,-7.7333 0,-9.3333 -0.2667,-18.4 0,-9.0667 -0.2666,-18.1333 0,-8.8 -0.2667,-17.8667 0,-9.0667 0,-18.1333 v -15.2 l 0.2667,-0.2667 v -0.5333 q 0,-0.5334 -0.2667,-0.8 -0.2667,-0.2667 -0.2667,-1.0667 v -0.2667 q 0.2667,-0.8 1.0667,-0.8 0.5333,-0.5333 1.6,-0.5333 0.5333,0.2667 1.0667,0.8 v 0.2667 q 0.5333,4.8 2.4,9.0666 2.1333,4 4.2666,7.7334 l 0.5334,1.0666 v 0.2667 q 2.9333,7.2 6.1333,14.6667 3.2,7.2 6.4,14.1333 2.9333,6.6667 5.8667,13.6 3.2,6.6667 5.8666,13.6 0.8,2.1333 1.8667,4 1.0667,1.6 2.1333,3.4667 1.3334,2.1333 2.6667,4.5333 1.3333,2.1333 1.8667,4.5333 2.9333,3.7334 4.8,7.7334 1.8666,4 3.2,8.2666 1.3333,2.6667 2.4,5.3334 1.0666,2.6666 2.4,5.3333 h 0.2666 q 1.6,0 1.8667,1.0667 0.2667,0 2.4,0 2.4,0 5.3333,-0.2667 3.2,0 7.4667,-0.2667 h 0.2667 q 1.8666,1.3334 5.3333,0.2667 1.0667,-0.2667 1.8667,-0.2667 1.0666,-0.2666 2.4,0 0,-0.5333 0.2666,-0.8 0.8,-0.2666 1.6,0 1.0667,0 1.0667,0 v -0.2666 -0.8 q 0,-1.0667 0.2667,-1.8667 0,-1.0667 0.2666,-2.4 0.2667,-2.9333 0.2667,-5.8667 0.2667,-2.9333 0.8,-6.1333 0.2667,-4 0.2667,-8 0.2666,-4 0.2666,-8 0,-5.3333 -0.2666,-10.4 0,-5.3333 -0.2667,-10.4 0,-5.3333 -0.2667,-10.4 0,-5.0667 0,-10.1333 0,-3.7334 0,-7.4667 0,-4 0.2667,-7.7333 0.5333,-4.8 0.8,-9.6 0.5333,-4.8 1.0667,-9.6 0.5333,-8 1.3333,-16.2667 0.8,-8.2667 0.8,-16.8 0,-2.6667 -0.2667,-5.0667 0,-2.4 -0.2666,-5.0666 0,-0.8 0,-1.6 0.2666,-1.0667 0.2666,-1.8667 0.2667,-1.0667 0.2667,-3.2 0,-1.8667 -0.2667,-2.6667 -2.9333,0.5334 -5.6,0.2667 -2.4,-0.2667 -4.8,-0.8 z m 13.8667,3.7333 q 0,1.6 -0.5333,2.1334 0.2666,2.4 0.2666,4.8 0,2.4 0,4.5333 0.2667,-0.8 0.2667,-1.6 0,-0.8 0.2667,-1.3333 0.2666,-2.6667 0.2666,-5.0667 0.2667,-2.4 0.2667,-5.0667 v -2.9333 q -0.8,0.5333 -0.8,2.1333 v 1.0667 z m -91.2,52.8 q 0,2.9334 1.8667,3.7334 -1.0667,-1.8667 -1.8667,-3.7334 z m -7.7333,109.6 q -1.0667,0.2667 -2.1334,0.5334 -0.8,0.2666 -2.1333,-0.2667 -3.7333,-1.0667 -7.4667,-1.0667 -3.4666,0 -7.1999,0.2667 -1.8667,0 -3.7334,0.2667 -1.6,0 -3.4666,0 -0.5334,1.0666 -1.0667,1.6 -0.5333,1.0666 -1.0667,1.8666 -0.5333,0.8 -0.5333,1.8667 1.0667,0 1.0667,0.5333 6.9333,-0.5333 14.1333,0 5.3333,0.2667 10.6666,0.2667 5.6,0 10.6667,-0.8 0,-0.2667 -0.2667,-0.2667 -1.3333,0 -1.8666,-0.8 -0.5334,-1.0666 -0.8,-2.4 -0.5334,-1.8666 -1.3334,-2.4 -1.8666,0 -3.4666,0.8 z m 7.7333,-26.9333 q 0,4.5333 -0.2667,9.0667 -0.2666,4.5333 -0.8,9.3333 0.2667,0.5333 0.2667,1.0667 0.2667,0.5333 0.5333,1.0666 0.2667,0.8 0.5334,1.6 0.2666,0.5334 0.2666,1.3334 0,0.5333 -0.5333,2.1333 0,0.5333 0.5333,1.6 0,1.0667 0.8,1.8667 0.2667,-1.8667 0.2667,-3.7334 0.2667,-1.8666 0.8,-4 0.5333,-2.9333 0.8,-5.6 0.5333,-2.9333 0.5333,-5.8666 0,-1.6 -0.5333,-4.2667 l 0.2667,-2.4 v -2.1333 q 0,-2.4 -0.8,-4.5334 v -0.2666 q 0,-8 -0.2667,-16 -0.2667,-8 -0.8,-15.7334 -0.5333,-5.8666 -0.8,-11.4666 -0.2667,-5.8667 -0.5333,-12 -0.5334,-2.6667 -0.5334,-4.5334 0,-1.0666 0,-1.8666 0.2667,-1.0667 0.2667,-2.1334 v -3.7333 q 0,-1.3333 -0.2667,-2.4 0,-1.3333 -0.5333,-2.6667 0.2667,1.3334 0.2667,2.6667 0,1.3333 0,2.6667 0,4.5333 -0.2667,8.8 0,4.2666 0,8.8 0,4.2666 -0.2667,8.5333 0,4.2667 0,8.8 v 7.4667 l 0.5334,8 q 0.2666,5.3333 0.2666,10.4 0.2667,4.8 0.2667,10.1333 z m 3.7333,-70.9333 q 0,0.8 -0.2666,1.0666 1.3333,4.5334 3.4666,8.8 2.1334,4 4.5334,8.5334 0.5333,1.3333 1.3333,2.9333 0.8,1.3333 1.6,2.6667 v 0.2666 q 0,2.4 0.8,4.5334 0.8,2.1333 1.8667,4.2666 0.8,2.1334 1.3333,4.2667 0.8,1.8667 1.0667,4 3.2,6.6667 5.8666,13.3333 2.6667,6.6667 4.8,12.8 1.8667,2.9334 3.2,6.1334 1.6,3.2 2.9334,6.1333 1.0666,2.4 2.1333,5.0667 1.3333,2.6666 2.6667,5.0666 l 0.8,1.0667 q 0.8,1.3333 1.3333,2.4 0.8,0.8 1.3333,1.8667 0.8,0.5333 1.0667,1.3333 0.2667,0.5333 0.8,1.0667 0.2667,0.8 1.3333,1.8666 0.5334,-1.6 1.0667,-2.1333 0.8,-0.8 0.8,-1.3333 -2.9333,-8.2667 -6.9333,-16 -3.7334,-7.7334 -8,-15.2 -4.5334,-8.5334 -9.0667,-17.6 -4.2667,-9.0667 -7.2,-18.4 -2.9333,-5.3334 -5.3333,-10.6667 -2.4,-5.3333 -4.5334,-10.6667 -1.6,-3.7333 -3.2,-7.4666 -1.3333,-3.7334 -3.4666,-7.4667 0.2666,0.8 0.2666,1.8667 0.2667,0.8 0.8,1.6 0.2667,1.0666 0.5334,2.1333 0.2666,0.8 0.2666,1.8667 z m 77.8667,97.3333 q -1.3333,1.3333 -3.7333,0.8 -2.4,-0.5333 -3.2,0.2667 l -0.2667,0.2666 q -6.1333,-1.3333 -12,-0.8 -5.8667,0.2667 -10.6667,0.8 -1.0666,0.8 -1.6,2.9334 0,0 -0.2666,0.5333 h 0.5333 0.2667 q 0.5333,0.5333 0.5333,0.8 3.4667,0 6.6667,-0.2667 3.4666,-0.2666 6.6666,-0.8 4.8,-0.5333 9.6,-1.0666 5.0667,-0.5334 10.1334,0 -0.5334,-0.5334 -1.3334,-1.6 -0.8,-1.3334 -1.3333,-1.8667 z m 7.4667,-118.9333 q -0.5334,5.0666 -0.8,10.1333 -0.2667,5.0667 -0.8,10.4 0,0.5333 0,1.3333 0.2666,0.8 0.2666,1.3334 0,2.9333 -0.2666,5.6 0,2.6666 -0.2667,5.6 0,2.9333 -0.2667,5.8666 0,2.9334 0,5.8667 0,2.1333 0,4.5333 0,2.1334 0.2667,4.2667 0.2667,5.3333 0.2667,10.4 0,5.0667 0,10.4 0,9.3333 -0.2667,18.9333 -0.2667,9.3334 -1.3333,18.4 l -0.2667,1.3334 q -0.5333,2.1333 -0.5333,3.4666 0,2.1334 2.1333,3.2 0,-0.2666 0.8,-1.0666 l 0.2667,-1.3334 q 0.5333,-1.3333 1.0666,-2.4 0.5334,-1.3333 0.5334,-2.9333 0.5333,-8.5333 0.8,-16.8 0.2666,-8.2667 0.5333,-16.2667 0.2667,-10.1333 0.5333,-20.2666 0.2667,-10.1334 1.3334,-21.3334 0.8,-8.2666 0.8,-17.0666 0,-7.7334 -0.5334,-15.2 -0.2666,-7.7334 -0.8,-15.2 -0.2666,-0.8 -0.2666,-1.8667 v -2.1333 q -1.3334,-4.5334 -1.3334,-8.2667 -0.5333,5.3333 -1.0666,10.6667 -0.2667,5.0666 -0.8,10.4 z m -69.8667,-48.8 q -0.2667,0.5333 -1.0667,1.3333 l 0.8,1.6 q 0.5334,1.0667 1.0667,2.1333 0.5333,0.8 0.5333,2.1334 2.9334,12.2666 7.2,22.6666 4.5334,10.4 10.1334,19.7334 2.9333,3.7333 5.0666,7.7333 2.4,3.7333 4.5334,7.4667 1.8666,2.9333 3.4666,6.1333 1.8667,2.9333 4,5.8667 -0.5333,-1.6 -0.8,-3.2 -0.2666,-1.8667 -0.2666,-2.4 -0.5334,0 -1.0667,-0.5334 -0.2667,0 -0.5333,-0.2666 -0.8,-1.3334 -1.6,-2.6667 -0.5334,-1.6 -1.3334,-2.9333 -1.6,-2.9334 -3.2,-5.8667 -1.3333,-3.2 -2.4,-6.4 -1.0666,-3.7333 -2.6666,-6.9333 -1.6,-3.2 -3.2,-6.4 -1.3334,-2.4 -2.4,-4.8 -1.0667,-2.4 -2.1334,-4.8 -3.4666,-5.3334 -6.1333,-10.6667 -2.4,-5.6 -4.5333,-10.9333 -0.8,-2.1334 -1.6,-4 -0.8,-1.8667 -1.8667,-4 z m 37.0667,65.0666 q 0,0.8 -0.5334,2.4 1.0667,1.8667 1.3334,3.7334 0.2666,1.8666 0.5333,4 0,0.5333 0,1.3333 0.2667,0.5333 0.2667,1.3333 l 0.8,-10.4 q 0.5333,-4.8 0.8,-9.3333 0.2666,-4.8 0.2666,-10.1333 0,-0.8 -0.2666,-1.3334 0,-0.8 0,-1.6 1.0666,-4.5333 1.0666,-10.4 0,-2.1333 -0.2666,-4.2666 0,-2.1334 0,-4.2667 -0.2667,-2.1333 -0.2667,-4 0,-2.1333 0,-4.2667 0,-3.7333 0.2667,-7.4666 0.5333,-3.7334 1.8666,-7.4667 -1.6,-1.6 -2.1333,-2.4 -1.3333,-1.8667 -2.6667,-2.4 0,0.2667 0.2667,0.5333 0,1.3334 -0.2667,2.4 0,0.8 0,2.1334 -0.2666,1.3333 -0.2666,2.4 0,1.0666 0,2.4 0,1.3333 0,2.6666 0,1.3334 0.5333,2.6667 -1.0667,6.9333 -1.3333,14.4 -0.2667,7.2 -0.5334,14.1333 0,3.4667 -0.2666,6.9334 0,3.4666 -0.2667,7.2 0,0.5333 -0.2667,1.0666 0,0.2667 0,0.8 0,1.0667 0.2667,1.8667 0.2667,0.8 0.5333,1.8667 0.5334,2.1333 0.5334,3.4666 z m 18.9333,-68 q -3.7333,-0.2666 -7.2,-0.2666 -3.4667,-0.2667 -6.9333,0 1.0666,1.6 1.8666,2.4 3.7334,-1.3334 6.9334,-1.0667 3.4666,0.2667 7.2,0.8 3.2,0.5333 6.4,0.8 3.2,0.2667 6.6666,-0.2667 l 0.8,-0.8 q 0.8,-0.8 0.8,-1.3333 -1.0666,0 -1.0666,0 -3.4667,0.5333 -7.4667,0.2667 -3.7333,-0.2667 -8,-0.5334 z"
           style="font-style:normal;font-variant:normal;font-weight:normal;font-stretch:normal;font-size:266.66665649px;font-family:'Key Tab Metal';-inkscape-font-specification:'Key Tab Metal';fill:#4e4e4e;fill-opacity:1;stroke:#4e4e4e;stroke-width:7;stroke-linecap:round;stroke-linejoin:round;stroke-miterlimit:4;stroke-dasharray:none;stroke-opacity:1"
           id="path2145" />
        <path
           d="m 1530.1909,1139.0825 q 3.7333,-1.0667 7.7333,-0.8 4,0 7.7334,0.5333 5.0666,0.8 9.6,0.8 h 0.2666 q 0.8,0.8 2.4,0.8 h 0.2667 q 10.4,4.2667 15.4667,10.4 5.3333,5.8667 7.4666,10.6667 1.8667,3.7333 3.2,7.2 0.8,1.8666 1.3334,3.7333 0.8,1.6 1.8666,3.2 0.5334,1.0667 0.5334,2.6667 0,1.8666 -0.2667,2.9333 -0.5333,2.1333 -0.5333,3.2 v 0.5333 q -0.5334,7.4667 -2.1334,14.4 -1.6,6.6667 -3.4666,13.6 l -3.2,11.2 q -0.8,3.2 -2.1334,6.6667 -1.3333,3.4667 -3.4666,6.6667 -2.1334,3.2 -5.0667,5.8666 -2.9333,2.4 -6.9333,3.7334 v 0.2666 q -2.4,0.2667 -5.8667,1.3334 -3.2,1.0666 -6.6667,1.6 -3.2,0.8 -6.1333,0 -2.1333,0.5333 -4.2667,0 -1.8666,-0.2667 -4,-0.8 -1.3333,-0.5334 -2.9333,-0.8 -1.6,-0.2667 -3.2,-0.2667 h -0.2667 v -0.2667 q -2.4,-1.6 -5.3333,-2.4 -2.1333,-0.8 -4.2667,-1.6 -2.1333,-1.0666 -3.4666,-3.4666 -9.3334,-4.8 -15.2,-14.1334 -5.6,-9.6 -5.6,-19.7333 -0.2667,-1.8667 -0.2667,-3.7333 0,-1.8667 0,-3.7334 0,-20 10.1333,-36.2666 1.6,-3.7334 4.2667,-7.4667 2.6667,-4 5.6,-7.4667 0.8,-1.0666 1.3333,-1.8666 0.8,-0.8 1.6,-1.8667 2.4,-2.1333 5.3334,-2.9333 2.9333,-1.0667 5.8666,-1.8667 z m 27.4667,4.2666 q -9.0667,-1.8666 -18.6667,-2.1333 -9.6,-0.2667 -18.1333,3.4667 -0.2667,0.2666 -0.5334,0.2666 0,0 -0.2666,0.2667 l -0.5334,0.5333 q -1.6,1.3334 -3.2,2.9334 -1.3333,1.3333 -2.4,3.4666 -5.6,5.8667 -8.8,13.0667 -2.9333,6.9333 -5.6,13.8667 -0.5333,1.0666 -0.8,1.8666 -0.2666,0.5334 -0.2666,0.8 0,0.2667 -0.2667,0.5334 -0.2667,0.2666 -0.2667,0.5333 -1.6,9.6 -1.6,17.6 0,5.6 0.8,10.6667 1.3334,7.7333 4.5334,13.8666 3.4666,5.8667 8.8,10.1334 1.3333,0.5333 2.6666,1.6 1.6,0.8 2.9334,1.8666 1.6,1.3334 3.2,2.4 1.6,0.8 3.4666,1.3334 h 0.2667 q 1.8667,2.1333 4.2667,2.9333 2.6666,0.5333 5.6,1.0667 1.0666,0.2666 2.1333,0.5333 1.0667,0 2.1333,0.5333 4.5334,0.8 8.2667,0 4,-0.5333 8,-1.3333 1.6,-0.5333 3.2,-0.8 1.6,-0.2667 3.2,-0.5333 6.9333,-2.4 10.6667,-8.8 3.7333,-6.4 6.1333,-14.1334 1.6,-8 4,-15.2 1.8667,-6.4 3.2,-12.8 0.5333,-1.6 0.5333,-2.9333 0,-1.6 0,-3.2 0,-2.1333 0,-4 0.2667,-2.1333 0.8,-4.2667 -2.4,-5.0666 -4,-9.8666 -1.3333,-3.4667 -2.9333,-6.9334 -1.3333,-3.4666 -3.4667,-6.6666 h -0.2666 q -3.7334,-3.7334 -8,-7.2 -4.2667,-3.7334 -8.8,-5.3334 z m -26.9334,0 q 2.9334,-2.1333 6.1334,-1.6 3.4666,0.2667 6.4,1.3334 1.8666,0.5333 3.4666,1.0666 1.8667,0.5334 3.7334,0.5334 2.1333,-0.8 4,0.2666 1.8666,0.8 3.4666,2.1334 1.8667,1.3333 3.7334,2.4 h 0.2666 q 12.8,6.4 17.6,20.5333 2.1334,7.7333 2.1334,16.5333 0,4.8 -0.8,10.4 -0.8,2.9334 -1.6,5.8667 -0.5334,2.6667 -1.0667,5.6 -1.3333,6.6667 -3.2,13.0667 -1.8667,6.4 -6.4,11.4666 -1.6,3.7334 -4.5333,5.6 -2.9334,1.8667 -6.1334,3.2 -2.9333,1.0667 -4.8,2.1334 l -0.2666,0.2666 q -0.8,0 -1.8667,0.2667 -0.8,0 -1.8667,0 -2.9333,0.5333 -6.1333,0.8 -2.9333,0.2667 -5.3333,-0.8 -4.2667,-0.5333 -9.0667,-1.8667 -4.8,-1.3333 -9.3333,-3.7333 -4.5334,-2.4 -8.5334,-5.6 -4,-3.4667 -6.6666,-8.2667 -4.8,-13.6 -4.8,-28 0,-11.2 3.2,-20.5333 2.4,-11.2 10.1333,-20.2667 8,-9.0666 18.1333,-12.8 z m 4.8,1.6 q -9.3333,1.3334 -16,8.5334 -6.6666,7.2 -12,15.2 -5.3333,12.2666 -5.3333,27.2 v 1.0666 q 0,6.9334 1.0667,13.8667 1.0666,6.6667 3.2,12.8 2.9333,5.6 8.2666,8.8 5.6,3.2 10.9334,5.6 l 1.0666,0.5333 q 0.2667,0.2667 0.2667,0.2667 0.2667,0 0.5333,0.2667 l 0.2667,0.2666 q 0,0 2.1333,0.5334 2.1334,0.2666 4.5334,0.8 2.6666,0.5333 4.8,1.0666 2.1333,0.5334 2.1333,0.5334 0,0 1.6,-0.2667 1.8667,-0.2667 3.7333,-0.2667 2.1334,-0.2666 3.7334,-0.2666 1.8666,-0.2667 1.8666,-0.2667 0,0 1.6,-0.8 1.6,-1.0667 3.4667,-1.8667 2.1333,-1.0666 3.7333,-1.8666 1.8667,-0.8 1.8667,-0.8 1.6,-1.8667 2.6667,-3.7334 1.3333,-1.8666 2.6666,-4 0.8,-1.3333 1.3334,-2.4 0.8,-1.0666 1.8666,-2.4 l 0.8,-2.9333 q 2.4,-8.2667 4.5334,-17.0667 2.1333,-9.0666 2.1333,-17.8666 0,-6.4 -1.6,-12.5334 -1.6,-6.1333 -5.6,-11.4666 -5.8667,-5.6 -12,-9.8667 -5.8667,-4.2667 -13.0667,-4.8 -1.8666,0.5333 -3.4666,0 -1.3334,-0.5333 -2.6667,-1.0667 -1.3333,-0.5333 -2.6667,-0.8 -1.0666,-0.5333 -2.4,0 z m -2.4,25.6 q 2.1334,-1.3333 5.0667,-1.0666 2.9333,0 5.0667,1.3333 2.6666,0.8 4.5333,2.6667 1.8667,1.6 4,3.4666 0.8,0.8 1.3333,1.6 0.8,0.8 1.6,1.3334 1.8667,2.1333 2.4,4.5333 0.5334,2.4 0.5334,5.0667 0,1.6 -0.2667,3.4666 0,1.6 -0.2667,3.4667 l -0.8,6.4 q -0.5333,8.5333 -10.4,12 -9.6,3.7333 -18.4,-2.9333 -2.4,-2.9334 -3.2,-6.1334 -0.8,-3.4666 -1.3333,-7.2 -0.2667,-1.8666 -0.5333,-3.4666 -0.2667,-1.8667 -0.8,-4 h -0.2667 q 0.8,-5.3334 3.2,-11.2 2.4,-6.1334 8.5333,-9.3334 z m -8.5333,22.1334 q 0,10.1333 6.1333,17.8666 3.7334,2.4 8.2667,2.4 4.8,-0.2666 9.3333,-2.4 4,-2.1333 4.8,-6.4 1.0667,-4.2666 1.3334,-8.8 0,-1.8666 0,-3.4666 0.2666,-1.6 0.5333,-3.2 -0.5333,-0.8 -1.0667,-1.8667 -0.2666,-1.0667 -0.8,-2.1333 -0.8,-2.1334 -2.1333,-4.2667 -1.0667,-2.1333 -3.2,-3.4667 -4.5333,-4 -13.3333,-4 -6.4,4 -8,9.3334 v 0.2666 q -0.8,2.4 -1.3334,5.0667 -0.5333,2.6667 -0.5333,5.0667 z m 10.6667,-18.4 v 0.2666 q 8.2666,0.8 15.2,7.7334 1.8666,2.9333 2.9333,6.6666 1.3333,3.4667 0,7.2 -2.1333,4.5334 -5.0667,8.5334 -2.9333,4 -8,5.3333 -2.9333,-0.5333 -6.1333,-1.0667 -2.9333,-0.8 -4.5333,-3.7333 l -3.2,-7.7333 q 0.2666,-1.3334 0.2666,-2.4 0.2667,-1.3334 0.2667,-2.6667 0.5333,-5.3333 1.6,-10.1333 1.0667,-4.8 6.4,-7.7334 z m 6.6666,5.8666 q -1.3333,-1.0666 -2.9333,-1.6 -1.6,-0.8 -3.4667,-0.2666 -4.2666,2.9333 -5.0666,7.7333 -0.8,4.8 -0.8,9.3333 v 0.8 q 0,0.5334 -0.2667,0.8 0,0.2667 0,0.5334 1.3333,1.6 1.8667,3.4666 0.5333,2.4 1.8666,3.7334 2.1334,1.3333 5.0667,1.8666 3.2,0.5334 5.8667,-1.3333 2.1333,-2.4 4.5333,-5.6 2.6667,-3.4667 2.6667,-7.7333 0,-1.0667 -0.2667,-1.6 v -0.2667 q -1.0667,-2.4 -2.1333,-4.5333 -1.0667,-2.1334 -3.2,-3.7334 -1.0667,-0.2666 -1.8667,-0.5333 -0.8,-0.5333 -1.8667,-1.0667 z"
           style="font-style:normal;font-variant:normal;font-weight:normal;font-stretch:normal;font-size:266.66665649px;font-family:'Key Tab Metal';-inkscape-font-specification:'Key Tab Metal';fill:#4e4e4e;fill-opacity:1;stroke:#4e4e4e;stroke-width:7;stroke-linecap:round;stroke-linejoin:round;stroke-miterlimit:4;stroke-dasharray:none;stroke-opacity:1"
           id="path2147" />
        <path
           d="m 1671.1951,1064.6825 1.3333,0.5333 v 0.2667 q 0.5333,4.8 0.8,9.3333 0.2667,4.2667 0.2667,8.2667 0,3.4666 -0.2667,6.6666 0,3.2 0,6.6667 -0.2667,3.7333 -0.5333,7.4667 0,3.7333 0,7.7333 0,1.0667 -0.2667,1.3333 v 1.0667 q 2.6667,-0.5333 5.3333,0 2.6667,0.2667 5.6,0.8 3.4667,0.5333 6.6667,1.0667 3.4667,0.2666 7.2,-0.8 v -0.2667 l 0.2667,0.2667 q 0.5333,0.2666 0.5333,1.8666 0,0.2667 0,0.5334 0.2667,0.2666 0.2667,0.5333 v 0.2667 q 1.3333,3.2 1.6,6.6666 0.2666,3.4667 0.2666,6.9334 0,7.2 -0.8,13.6 l -0.8,9.6 v 0.2666 h -0.2666 q -2.4,1.0667 -5.6,1.0667 -1.6,0.2667 -3.2,0.5333 -1.6,0.2667 -2.9334,0.8 l -0.2666,0.2667 q -2.4,0.2667 -4.8,0.8 -2.1334,0.5333 -4.5334,1.3333 -2.9333,1.0667 -5.3333,1.3334 v 2.9333 q 0,5.0667 0.8,10.6667 0.5333,2.9333 0.8,5.3333 0.2667,2.4 0.2667,4.5333 0,0.5334 -0.2667,0.8 0,0 0,0.2667 0.2667,2.1333 0.2667,4.2667 0.2666,2.1333 0.2666,4.2666 0,6.9334 -0.8,13.8667 -0.5333,6.9333 -1.0666,13.8667 -0.5334,4.5333 -1.0667,9.3333 -0.2667,4.5333 -0.8,9.3333 l 0.2667,1.3334 q 0.5333,2.1333 0.5333,2.9333 0,1.6 -1.0667,2.4 l -0.2666,0.2667 q -0.2667,0 -0.5334,-0.2667 l -0.5333,-0.5333 q -4.5333,0.5333 -9.0667,1.3333 -4.2666,0.8 -8.8,1.8667 -2.9333,0.8 -5.8666,1.3333 -2.6667,0.8 -5.6,1.3333 -3.4667,0 -6.6667,0.8 -1.6,0.5334 -4.2667,1.0667 h -0.2666 l -0.2667,-0.5333 v -0.2667 q 0,-1.6 0.5333,-2.9333 0.8,-1.3334 1.3334,-2.6667 0.5333,-1.3333 1.0666,-2.6667 0.8,-1.6 0.8,-3.2 0,-1.0666 -0.2666,-1.6 v -2.4 q 0,-8.5333 0.5333,-17.3333 0.5333,-8.8 1.0667,-17.6 0.5333,-9.0667 0.8,-18.1333 0.5333,-9.3334 0.5333,-17.8667 v -8.8 q -1.8667,1.0667 -3.7333,4 -0.2667,0 -0.2667,0.2667 0,0.2666 -0.2667,0.5333 -0.5333,6.4 -0.5333,13.6 0,6.9333 0,14.6667 0,10.6666 -0.2667,21.6 -0.2666,10.6666 -1.6,20.2666 0.2667,1.3334 0.2667,2.6667 0.2667,1.0667 0.2667,2.4 0.2666,1.6 0.2666,3.2 0.2667,1.6 0.2667,3.2 0,1.3333 0,2.4 0,1.0667 -0.5333,2.1333 v 1.0667 l -1.3334,-1.6 v -0.2667 q 0,-2.1333 0,-3.7333 0,-1.8667 -0.2666,-4 -0.2667,-2.6667 -0.2667,-5.0667 0,-2.4 0,-5.0666 0,-2.6667 0,-5.0667 0,-2.6667 0.5333,-5.3333 v -4.5334 q 0,-7.7333 0.2667,-15.7333 0.5333,-8.2667 1.0667,-16.2667 -0.2667,-1.3333 -0.5334,-3.2 0,-2.1333 0,-4.2666 v -4.5334 q 0.2667,-1.0666 0.2667,-1.8666 0,-1.0667 0,-1.8667 v -1.6 q -0.8,0 -1.6,0.2667 -0.5333,0 -1.3333,0 -1.0667,0.2666 -2.1334,0.5333 -1.0666,0.2667 -2.4,0.2667 l -5.3333,0.2666 q -8,0.5334 -13.8667,1.6 l -0.2666,-0.2666 q -1.0667,-0.5334 -1.3334,-1.3334 0,-0.8 -0.2666,-1.6 0,-1.6 -0.8,-2.4 v -0.2666 q -1.3334,-2.9334 -1.6,-6.1334 0,-3.4666 0,-7.2 v -3.4666 -3.4667 q 0,-2.9333 -0.2667,-5.8667 -0.2667,-3.2 -1.0667,-6.1333 l 0.2667,-0.2667 v -0.8 q 0,-1.3333 -0.2667,-2.1333 -0.5333,-1.0667 -0.5333,-1.8667 0,-1.3333 1.3333,-2.1333 l 7.4667,-1.0667 q 2.9333,-0.5333 5.0667,-0.8 2.4,-0.2666 2.6666,-0.2666 1.6,-0.8 3.2,-0.8 1.6,-0.2667 2.9334,-0.5334 1.8666,-0.2666 3.4666,-0.5333 1.6,-0.2667 3.2,-1.0667 0,-2.4 -0.2666,-4.5333 0,-2.1333 0,-4.2667 0,-4.5333 0.5333,-8.5333 0.5333,-4.2667 1.8667,-9.8667 0.8,-5.6 1.3333,-11.7333 0.8,-6.1333 0.8,-11.4667 v -0.2666 h 0.2667 q 3.7333,-1.8667 8,-2.1334 4.5333,-0.5333 9.0666,-0.8 2.6667,-0.2666 5.0667,-0.2666 2.6667,0 5.0667,-0.5334 l 2.9333,0.2667 q 2.9333,0.5333 5.8667,0.5333 3.2,0 6.1333,-0.8 z m -26.4,3.4666 q -3.7334,0.2667 -7.2,0.5334 -3.2,0.2666 -6.1334,1.8666 0.5334,1.3334 1.6,2.4 1.0667,0.8 2.1334,1.3334 2.1333,-0.5334 4.5333,-0.5334 2.4,0 5.0667,0 h 6.9333 q 2.9333,0.5334 5.8667,0.8 2.9333,0 5.0666,-0.5333 0.2667,-0.8 1.0667,-0.8 0.5333,0 0.8,0.2667 0.5333,0.2666 1.0667,0.5333 l 0.8,0.8 h 0.2666 l -0.2666,0.2667 v 7.2 q 0,3.7333 0,7.2 0.2666,3.4666 0.5333,6.6666 0.2667,3.2 0.2667,6.6667 0.2666,3.2 0.2666,6.6667 0,2.4 -0.2666,5.0666 0,2.4 -0.2667,5.3334 l 0.8,-0.8 q 0.5333,-0.5334 1.0667,-1.0667 0.8,-0.8 1.0666,-1.3333 0.8,-6.1334 1.0667,-10.9334 0.2667,-5.0666 0.2667,-10.4 0,-2.9333 0,-6.1333 0,-3.2 -0.2667,-6.6667 -0.2667,-2.4 -0.2667,-4.2666 v -4.5334 -0.8 q 0,-0.5333 0,-1.0666 0.2667,-0.5334 0.2667,-1.0667 0.5333,-1.0667 0.5333,-1.6 0,-0.8 -0.8,-1.3333 -3.4666,0.5333 -7.7333,0.2666 -4,-0.2666 -7.4667,-0.8 h -0.2666 q -2.6667,0.5334 -5.3334,0.8 -2.6666,0 -5.0666,0 z m -45.8667,77.3334 q 0,4.2666 0,8.5333 0.2667,4 1.3333,7.7333 0.2667,0.5334 0.2667,1.0667 0.2667,0.5333 0.5333,1.0667 0.5334,2.1333 1.0667,2.9333 0.2667,-0.5333 0.5333,-1.0667 0.5334,-0.5333 1.0667,-1.0666 1.8667,-2.4 1.8667,-3.7334 0,-1.3333 -0.5334,-2.1333 l -0.2666,-0.2667 q 0.2666,-0.5333 0.2666,-1.6 0,-1.8666 -0.2666,-3.4666 -0.2667,-1.6 -0.8,-3.4667 -0.5334,-1.8667 -0.8,-3.4667 -0.2667,-1.6 -0.2667,-3.4666 v -0.8 l -0.2667,-1.3334 q -0.5333,-2.9333 -1.3333,-5.3333 -0.5333,-2.4 -2.9333,-4 v 3.4667 q 0,1.0666 0.2666,2.1333 0.2667,1.3333 0.2667,2.4 0,1.0667 0,2.4 v 1.8667 z m 26.1333,-23.2 q -2.9333,0.5333 -6.1333,1.0666 -3.2,0.5334 -6.1333,0.5334 -1.3334,0.2666 -2.6667,0.5333 -1.3333,0.2667 -2.6667,0.5333 -2.1333,0.5334 -4.2666,1.0667 -2.1334,0.5333 -4.2667,1.3333 1.0667,1.8667 2.1333,3.2 1.3334,1.3334 3.2,1.8667 4,-2.6667 8.8,-3.2 4.8,-0.5333 9.8667,-0.8 1.8667,0 3.4667,0 1.8666,0 3.4666,-0.2667 -2.1333,-4 -4.8,-5.8666 z m 1.0667,-12.5334 q 0,4.5334 0.8,9.3334 0,0 0.8,1.6 1.0667,1.3333 2.1333,2.9333 1.0667,1.6 1.8667,2.9333 1.0667,1.3334 1.0667,1.6 h 0.2666 v -5.6 -5.3333 q 0,-8.2667 0.2667,-15.4667 0.2667,-7.4666 1.0667,-16.2666 -0.2667,-1.0667 -0.2667,-4 0,-2.1334 -0.5333,-4 -0.2667,-1.8667 -2.6667,-2.6667 0,5.0667 -0.8,9.6 -0.8,4.2667 -1.6,8.2667 -1.0667,4.2666 -1.8667,8.5333 -0.5333,4 -0.5333,8.5333 z m 24.8,-33.0666 q -2.4,-0.2667 -4.5333,-0.2667 -2.1334,-0.2667 -4.2667,0 -1.0667,0.8 -3.2,0.2667 -2.4,0 -2.6667,0.8 0.8,4.5333 0.8,7.7333 0,2.1333 -0.2666,4 0,1.8667 -0.2667,3.7333 -0.2667,1.8667 -0.5333,3.4667 0,1.6 -0.2667,3.7333 0.2667,1.3334 0.2667,2.4 0,1.0667 0,2.1334 0,2.1333 0,4 0,1.8666 -0.2667,4 -0.2667,2.1333 -0.2667,4 0,1.8666 0,3.7333 0,5.6 1.0667,9.8667 l 0.2667,0.2666 -1.3334,0.8 -0.2666,0.2667 -4.5334,-0.2667 q -6.6666,-0.2666 -13.3333,0 -6.6667,0.2667 -12.5333,3.7334 0.2666,2.4 0.5333,4.8 0.2667,2.4 0.8,4.5333 0.5333,3.7333 1.0667,7.4667 0.5333,3.7333 0.8,7.7333 3.4666,1.0667 6.6666,0.5333 3.2,-0.8 6.6667,-1.8666 2.1333,-0.5334 4.2667,-1.0667 2.4,-0.8 4.5333,-0.8 0.5333,0 1.3333,-0.2667 0.8,-0.2666 1.3334,-0.5333 2.4,-1.0667 3.7333,-0.2667 v 0.2667 q 0.2667,2.6667 0.2667,5.3333 0.2666,2.4 0.2666,5.3334 0,8.2666 -0.8,17.0666 -0.5333,8.8 -1.0666,17.3334 -0.5334,5.3333 -0.8,10.6666 -0.2667,5.0667 -0.5334,9.6 -0.2666,2.6667 -0.2666,5.6 0,2.9334 0,5.8667 v 11.4667 q 3.7333,0 7.4666,-0.5334 4,-0.8 7.7334,-1.6 3.4666,-0.5333 6.6666,-1.0666 3.4667,-0.8 7.2,-0.8 0,-2.6667 0,-5.0667 0.2667,-2.6667 0.2667,-5.0667 0,-2.6666 -0.2667,-5.0666 0,-2.6667 0,-5.0667 v -10.1333 q 0,-2.9334 0,-6.1334 0,-3.2 0.2667,-6.4 v -5.3333 q 0,-4.2667 0.2667,-8.8 0.5333,-4.8 1.0666,-9.3333 0.2667,-2.9334 0.5334,-5.6 0.2666,-2.9334 0.2666,-5.3334 0,-0.2666 0.2667,-0.2666 0,-0.8 -0.2667,-1.6 -0.2666,-0.8 -0.5333,-1.6 -0.8,-1.6 -0.8,-3.4667 0,-1.6 1.0667,-2.6667 5.0666,-1.6 11.2,-2.4 6.1333,-0.8 13.8666,-0.2666 0,0 0.5334,-1.0667 v -0.2667 q 0,-2.1333 -0.2667,-4.2666 0,-2.1334 -0.2667,-4.2667 0,-2.1333 -0.2666,-4 0,-1.8667 0,-4 0,-1.8667 0,-3.4667 0,-1.8666 0.5333,-4 h -2.4 q -11.2,-1.6 -22.9333,0 l -0.2667,-0.2666 q -1.3333,-0.8 -1.3333,-2.1334 l 0.2666,-0.2666 q 0.8,-1.8667 0.8,-4.2667 0,-1.3333 0.5334,-4 0.2666,-1.3333 0.2666,-2.1333 0,-1.0667 0,-2.1334 0,-4 -0.2666,-7.2 -0.2667,-3.4666 -0.5334,-6.9333 -0.2666,-3.2 -0.5333,-6.1333 0,-3.2 0,-6.6667 v -5.3333 q 0,-0.8 -0.8,-0.8 -2.9333,0.5333 -6.1333,0.5333 -2.9334,-0.2667 -5.8667,-0.5333 z m 27.7333,40 q -2.9333,0.5333 -5.6,1.3333 -2.4,0.8 -3.7333,3.2 2.4,-0.5333 4.8,-0.2667 2.6667,0 5.3333,0.5334 4.2667,0.5333 8,0.5333 4,-0.2667 6.9334,-4 h -2.6667 q -2.9333,0 -6.1333,-0.2667 -2.9334,-0.2666 -5.6,-1.0666 z m 14.4,10.6666 q 0,2.4 -0.8,4.2667 0.2667,1.3333 0.2667,2.6667 0.2667,1.0666 0.2667,2.4 v 2.9333 q -0.2667,1.0667 -0.2667,3.2 0,2.9333 0.5333,5.3333 0.8,2.1334 3.2,3.4667 0.5334,-4 1.0667,-8.5333 0.8,-4.8 0.8,-9.6 0,-7.7334 -2.4,-14.1334 -1.8667,1.0667 -2.4,2.6667 -0.2667,1.3333 -0.2667,2.9333 v 1.0667 z m -70.6666,33.6 q -1.6,0.5334 -3.2,1.0667 -1.6,0.5333 -3.2,1.0667 v -0.2667 q -0.8,0.5333 -1.8667,0.5333 -1.0667,0 -2.4,0 -2.1333,0.2667 -4,0.5334 -1.6,0.2666 -2.4,2.1333 h 5.6 q 4.2667,-0.2667 8,-0.5333 3.7333,-0.2667 8.2667,-1.6 0.2666,-1.3334 0.8,-2.1334 0.8,-0.8 1.3333,-1.6 0.5333,-0.5333 0.5333,-0.8 0.2667,-0.2666 0.5334,-0.5333 -2.1334,0.2667 -4,1.0667 -1.8667,0.5333 -4,1.0666 z m 42.4,56.5334 q 0,6.1333 0,12 0.2666,5.6 0.5333,10.9333 0.2667,0.2667 1.0667,0.8 1.0666,0.5333 1.6,0.8 0.2666,-2.6667 0.2666,-5.3333 0.2667,-2.6667 0.5334,-5.6 1.0666,-9.3334 1.8666,-19.2 0.8,-9.8667 0.8,-19.4667 0,-6.1333 -0.5333,-12 -0.2667,-6.1333 -1.6,-11.7333 0,-0.5334 -0.2667,-1.3334 0,-0.8 0,-1.3333 0,-0.5333 0,-1.0667 0.2667,-0.8 0.2667,-1.3333 v -2.1333 q 0,-1.6 -0.5333,-2.9334 -0.2667,-1.3333 -1.6,-2.6666 0,0.8 -0.2667,1.0666 v 0.8 q 0,0.5334 0.5333,1.6 l 0.2667,0.2667 h -0.2667 q -1.3333,13.6 -2.1333,28.5333 -0.5333,14.9334 -0.5333,29.3334 z m 27.7333,-65.3334 q -0.2667,0.2667 -0.2667,0.5334 0,0.2666 -0.2666,0.5333 l -0.5334,0.5333 h -0.2666 q -1.6,-0.2666 -4.2667,-0.5333 -2.6667,-0.5333 -5.8667,-0.5333 -2.9333,0 -6.1333,0.5333 -2.9333,0.5333 -5.6,1.6 0.5333,0.5333 1.6,1.8667 1.0667,1.3333 1.6,1.6 2.4,-0.5334 4.8,-1.0667 2.4,-0.5333 5.0667,-1.0667 2.9333,-0.5333 5.6,-1.0666 2.9333,-0.5334 5.6,-1.6 -0.8,-0.8 -1.0667,-1.3334 z m -58.4,95.2 q -1.8667,-0.2666 -2.6667,2.4 -0.2666,0.5334 -0.2666,0.8 0,0.2667 -0.2667,0.5334 5.3333,-0.2667 10.4,-1.3334 5.3333,-0.8 10.1333,-2.1333 7.4667,-2.1333 14.6667,-3.2 -1.0667,-1.3333 -2.6667,-1.3333 -1.3333,-0.2667 -3.2,-0.2667 h -2.9333 q -2.1333,0.2667 -4.2667,0.8 -2.1333,0.5333 -4.2666,1.0667 -3.7334,1.0666 -7.4667,1.8666 -3.4667,0.8 -7.2,0.8 z"
           style="font-style:normal;font-variant:normal;font-weight:normal;font-stretch:normal;font-size:266.66665649px;font-family:'Key Tab Metal';-inkscape-font-specification:'Key Tab Metal';fill:#4e4e4e;fill-opacity:1;stroke:#4e4e4e;stroke-width:7;stroke-linecap:round;stroke-linejoin:round;stroke-miterlimit:4;stroke-dasharray:none;stroke-opacity:1"
           id="path2149" />
        <path
           d="m 1758.8826,1133.2158 q 14.9333,-0.8 22.6666,6.1333 8,1.8667 13.6,8.5334 5.6,6.6666 9.3334,13.6 0.8,1.6 0.8,2.9333 0.2666,1.3333 0.2666,2.6667 0,1.0666 0,2.1333 0,0.8 0.2667,2.1333 h 0.2667 l -0.2667,0.2667 q -0.8,2.1333 -1.0667,4.5333 0,2.1334 -0.2666,4.8 -0.2667,3.7334 -0.8,7.4667 -0.2667,3.4667 -2.6667,6.4 h -0.2667 q -1.8666,0.8 -3.7333,0.8 -1.8667,-0.2667 -3.7333,-0.5333 -2.1334,-0.5334 -4,-0.5334 -1.8667,-0.2666 -3.7334,0.8 l -0.2666,0.2667 -0.2667,-0.2667 q -1.8667,-0.5333 -3.7333,-0.5333 -1.8667,0 -4,0.5333 -2.1334,0.5334 -4,0.8 -1.8667,0 -4,-1.0666 -1.8667,0.2666 -4,0.2666 -1.8667,-0.2666 -4,-0.5333 -1.8667,-0.2667 -3.7334,-0.2667 -1.8666,-0.2666 -3.7333,-0.2666 v 0.8 q 0,1.0666 -0.2667,1.8666 v 1.8667 q 0,1.6 0.2667,3.2 0.5333,1.3333 1.8667,2.1333 0.8,1.3334 1.6,1.6 1.0666,0.2667 2.1333,0.5334 1.0667,0.2666 2.6667,0.8 1.8666,-0.2667 4,0.5333 0.5333,0.2667 1.3333,0.5333 0.8,0.2667 1.3333,0 l 0.2667,-0.2666 0.2667,0.2666 q 1.6,1.0667 4.8,0.5334 1.8666,-0.2667 4,0 7.4666,-2.4 12.5333,-10.6667 v -0.2667 l 0.5333,0.2667 q 1.8667,0.5333 2.1334,1.3333 0,0.2667 0.2666,0.2667 0,0.2667 -0.5333,0.8 0.5333,3.4667 1.6,5.6 4.2667,5.6 5.0667,12.5333 1.0666,6.9334 1.6,13.6 v 1.6 0.2667 q 0,0.2667 -0.2667,0.8 0,0.2667 0,0.8 0,0.5333 0,1.0667 0.2667,0.2666 0.2667,0.8 v 1.8666 q 0,2.1334 -0.8,2.9334 l -0.2667,0.2666 v -0.2666 q -1.8667,-0.2667 -4.5333,1.0666 -2.1334,1.0667 -3.7334,1.0667 -6.1333,2.9333 -13.3333,3.4667 -6.9333,0.5333 -13.8667,0.8 -2.9333,0 -5.6,0 -2.6666,0 -5.6,0.5333 -3.2,0 -6.1333,-0.8 -2.9333,-0.5333 -6.1333,-1.0667 -1.3334,-0.2666 -2.6667,-0.5333 -1.0667,0 -2.4,-0.5333 h -0.2667 q -1.3333,-1.3334 -3.2,-1.6 -1.6,-0.2667 -3.2,-0.8 l -1.3333,-0.2667 q -11.2,-10.1333 -16.2667,-21.6 -4.8,-11.7333 -2.9333,-23.4667 2.1333,-10.1333 5.0667,-20.2666 2.9333,-10.1334 8.2666,-18.9334 12.2667,-19.7333 26.9334,-24.5333 h 0.2666 l 2.1334,-0.2667 q 1.8666,0 3.7333,-0.2666 1.8667,-0.2667 3.2,-1.0667 z m 6.1333,2.9333 q -4,-0.2666 -7.7333,0 -3.7334,0.2667 -5.8667,0.8 -17.3333,6.4 -27.7333,25.6 -7.7334,14.9334 -11.7334,37.0667 -0.2666,1.3333 -0.2666,2.9333 0,1.3334 0,2.6667 0,8.2667 4,17.0667 2.1333,4.8 5.6,9.6 3.7333,4.8 8.2666,9.0666 1.3334,0 2.4,0.5334 1.3334,0.5333 2.6667,1.0666 1.3333,0.5334 2.6667,1.3334 1.6,0.5333 3.2,0.2666 v -0.2666 0.2666 q 6.9333,2.1334 14.4,1.8667 7.4666,-0.2667 14.9333,-0.8 2.9333,-0.2667 5.8667,-0.2667 3.2,-0.2666 6.1333,-0.2666 2.1333,-0.5334 4.5333,-1.3334 2.4,-1.0666 4.5334,-1.8666 1.3333,-0.5334 2.6666,-1.0667 1.6,-0.5333 2.9334,-1.0667 -0.5334,-0.5333 -1.3334,-1.3333 -0.8,-1.0667 -1.0666,-1.3333 -0.5334,0.2666 -1.3334,0.8 -0.5333,0.2666 -1.0666,0.8 -1.3334,1.0666 -3.2,2.1333 -1.6,0.8 -3.7334,0.5333 -7.2,3.4667 -15.7333,3.7334 -8.2667,0.2666 -14.9333,-0.5334 -2.1334,0.2667 -4,-0.2666 -1.8667,-0.8 -3.4667,-1.6 -1.8667,-0.5334 -3.4667,-1.0667 -1.6,-0.8 -3.4666,-0.5333 v 0.2666 -0.2666 q -4.8,-1.3334 -9.0667,-4.5334 -4.2667,-3.2 -8,-6.9333 -3.4667,-3.7333 -5.3333,-9.0667 -1.6,-5.3333 -1.6,-10.6666 0,-2.6667 0.5333,-5.3334 0.5333,-2.6666 1.3333,-5.0666 v -1.0667 q -0.2666,-0.5333 -0.2666,-1.3333 0,-1.0667 0.2666,-1.6 v -0.2667 q 0,0 0.2667,-0.5333 v -1.0667 q 0.2667,-1.8667 0.2667,-3.4667 0,-1.6 0.5333,-3.2 1.6,-13.0666 9.6,-25.0666 6.9333,-10.4 18.9333,-19.4667 h 0.2667 q 1.6,-0.5333 3.2,-1.0667 1.6,-0.8 3.2,-1.6 2.6667,-1.3333 5.3333,-2.4 2.9334,-1.0666 5.8667,-0.8 z m -11.2,6.4 q -2.1333,1.0667 -3.2,1.3334 -8.5333,4.2666 -14.4,11.7333 -5.8667,7.4667 -10.4,15.7333 l -0.5333,2.1334 q -1.6,4.5333 -2.9334,9.3333 -1.3333,4.8 -1.3333,9.6 0,1.0667 0,2.1333 0.2667,1.0667 0.2667,2.1334 l -0.8,4 q -0.5334,2.1333 -1.0667,4.5333 -0.5333,2.4 -0.5333,5.0667 0,0.8 0,1.6 0.2666,0.8 0.2666,1.6 0.5334,8.2666 6.6667,14.6666 6.4,6.4 13.3333,9.0667 0.8,0.2667 2.6667,0.2667 1.3333,0.2666 2.9333,0.8 1.6,0.2666 2.9334,1.6 4,1.0666 8.5333,1.6 4.5333,0.2666 8.8,0.2666 4.2667,-0.2666 8,-0.5333 3.7333,-0.5333 6.4,-1.0667 1.3333,-0.8 2.6667,-1.3333 1.3333,-0.5333 2.6666,-1.0667 2.9334,-0.8 5.0667,-1.8666 2.4,-1.3334 3.4667,-4.2667 0,0 -0.5334,-2.1333 -0.5333,-2.1334 -1.0666,-4.5334 -0.5334,-2.4 -1.0667,-4.5333 -0.5333,-2.1333 -0.5333,-2.1333 -1.3334,-0.5334 -1.3334,-2.4 0,-0.2667 0,-0.5334 0.2667,-0.2666 0.2667,-0.8 v -1.3333 q 0,-0.8 -0.2667,-1.0667 -3.2,2.1334 -8.5333,2.9334 -2.1333,-0.2667 -4.2667,0 -1.8666,0 -4,0.2666 -4,0.2667 -8.2666,0.2667 -4,0 -7.7334,-1.3333 -1.3333,0 -2.4,-0.8 -1.0666,-0.8 -2.1333,-1.6 -1.8667,-1.8667 -3.2,-2.4 h -0.2667 q -2.4,-3.2 -3.2,-7.2 -0.8,-4.2667 -1.0666,-7.4667 0.2666,-0.8 0.2666,-2.1333 0.2667,-2.1334 0.8,-4 0.5334,-1.8667 3.4667,-2.1334 8.8,0 17.3333,0.8 7.2,0.5334 14.6667,0.8 7.4667,0.2667 14.9333,-0.2666 1.6,-2.4 2.1334,-4.5334 0.5333,-2.4 0.5333,-4.8 0,-2.4 -0.5333,-4.8 -0.2667,-2.4 -0.8,-5.0666 -0.2667,-1.3334 -0.5334,-2.4 0,-1.3334 -0.2666,-2.6667 -1.0667,-1.3333 -2.1334,-2.6667 -0.8,-1.3333 -1.8666,-2.9333 -4.2667,-6.1333 -9.3334,-11.2 -5.0666,-5.0667 -13.0666,-4.5333 l -0.8,-0.5334 q -1.6,-0.5333 -1.8667,-1.8666 -3.2,-0.5334 -6.4,0.5333 -3.2,0.8 -6.4,2.1333 z m 15.7333,-4.2666 q 1.0667,0.5333 1.6,1.0666 1.6,0.5334 2.9334,0.5334 h 2.1333 q -2.1333,-1.6 -4.8,-2.4 -2.6667,-0.8 -5.3333,-1.0667 0.8,0 1.0666,0.2667 h 0.2667 q 0.8,1.0666 2.1333,1.6 z m 22.4,71.4666 q 0,0.2667 -0.2666,0.5334 0,0 0.2666,0.5333 v 0.2667 q 1.0667,5.6 2.1334,11.2 1.3333,5.6 3.7333,10.4 l 0.2667,0.5333 h -0.2667 q -0.8,0.5333 -0.8,0.8 v 0.2667 q 0,1.0666 1.3333,1.8666 v -0.8 -0.5333 -1.3333 q 0.2667,-1.0667 0.2667,-2.6667 0,-14.9333 -7.4667,-25.3333 -0.2666,0.2666 -0.2666,0.8 0,0.5333 0.5333,1.6 0.5333,1.0666 0.5333,1.8666 z m -44.5333,-18.4 q 0,0.2667 -0.2667,0.2667 v 2.1333 q 0,4.8 1.6,9.6 1.8667,4.8 6.4,7.2 2.4,1.6 5.0667,1.8667 2.9333,0 5.8667,-0.5333 0.8,0 1.6,0 1.0666,-0.2667 1.8666,-0.2667 -2.9333,-1.0667 -5.8666,-1.0667 -1.8667,-0.5333 -3.7334,-0.8 -1.8666,-0.2666 -4,-1.3333 -3.7333,-1.3333 -4.2666,-3.7333 -0.5334,-2.6667 -0.8,-5.6 -0.2667,-2.4 -0.8,-4.2667 -0.2667,-2.1333 -2.6667,-3.4667 z m 23.7333,-0.5333 q -4.8,-0.5333 -9.6,-0.5333 -4.8,-0.2667 -9.6,0.2666 l 0.8,0.8 q 12,1.3334 22.9334,1.3334 10.9333,0 21.0666,-0.5334 -0.5333,-0.5333 -2.1333,-1.0666 h -1.3333 q -5.6,0.8 -11.2,0.5333 -5.6,-0.2667 -10.9334,-0.8 z m 30.1334,-13.8667 q 0,7.2 -2.4,13.0667 0.2666,0.2667 0.5333,0.5333 0.5333,0.2667 1.0667,0.8 0,-0.5333 0.5333,-2.1333 l 0.5333,-1.6 v -2.9333 q 0,-4.2667 0.8,-8.2667 0.2667,-2.1333 0.2667,-4 0.2667,-1.8667 0.2667,-4 0,-5.6 -2.4,-9.6 -2.9334,-2.9333 -5.3334,-6.1333 -3.2,-3.7334 -6.4,-6.6667 -2.9333,-2.9333 -7.2,-3.7333 2.1334,1.3333 4,3.7333 2.1334,2.1333 4,4.2667 l 4,4.8 q 7.7334,9.0666 7.7334,21.8666 z m -24.5334,34.9334 q -1.0666,-0.5334 -2.4,-0.5334 -1.3333,0 -2.6666,0.2667 0.8,0 2.4,0.5333 h 0.5333 q 0.2667,0 0.2667,0 0.2666,-0.2666 0.5333,-0.2666 z m 11.2,-5.8667 q -5.0666,4.2667 -10.1333,5.8667 1.8667,-0.2667 3.4667,-0.2667 1.6,-0.2667 3.2,-0.8 h 0.2666 q 1.6,-0.5333 2.1334,-1.8667 0.8,-1.6 1.0666,-2.9333 z m -26.1333,-48.8 q 2.6667,-0.8 4.8,0.2667 2.4,0.8 4,2.6666 1.8667,1.6 3.2,3.7334 1.6,1.8666 2.4,3.4666 l 0.2667,0.2667 h -0.2667 q 0,0.5333 0,0.8 0.2667,0.2667 0.2667,0.8 1.0666,1.8667 0.2666,2.6667 -0.2666,0.5333 -1.8666,1.0666 -2.1334,0.2667 -4.5334,0.2667 -2.1333,-0.2667 -4.2666,-0.2667 -3.2,0 -6.4,0.2667 -3.2,0 -6.4,0.8 v 0.2667 l -0.2667,-0.2667 q -0.8,-0.5333 -0.8,-1.0667 0,-0.8 0,-1.3333 v -0.8 -0.2667 h 0.2667 q 1.0666,-1.3333 1.6,-2.6666 0.8,-1.3334 1.6,-2.6667 1.0666,-2.1333 2.4,-4.2667 1.3333,-2.4 3.4666,-3.7333 z m 1.3333,2.6667 q -1.0666,0.2666 -1.8666,1.6 l 1.6,-0.8 1.3333,-0.5334 0.2667,0.2667 q 1.6,0.8 3.4666,2.6667 1.8667,1.8666 2.4,4 h 0.8 q 0.2667,-0.2667 0.5334,-0.2667 -1.3334,-2.1333 -3.4667,-4.2667 -1.8667,-2.1333 -5.0667,-2.6666 z m 1.0667,4 q -0.5333,0.2666 -1.6,1.0666 -1.0667,0.5334 -1.6,0.8 1.0667,0.8 4,0.2667 h 1.3333 z m 2.9333,5.3333 q -1.3333,0.5333 -2.6666,0.5333 -1.0667,0 -2.4,0 -1.3334,-0.2666 -2.6667,-0.2666 -1.0667,0 -2.1333,1.0666 h 4.5333 q 2.1333,0 4,0 2.1333,0 3.4667,-0.5333 -0.8,-0.8 -2.1334,-0.8 z"
           style="font-style:normal;font-variant:normal;font-weight:normal;font-stretch:normal;font-size:266.66665649px;font-family:'Key Tab Metal';-inkscape-font-specification:'Key Tab Metal';fill:#4e4e4e;fill-opacity:1;stroke:#4e4e4e;stroke-width:7;stroke-linecap:round;stroke-linejoin:round;stroke-miterlimit:4;stroke-dasharray:none;stroke-opacity:1"
           id="path2151" />
        <path
           d="m 1824.5992,1059.8825 6.4,0.5333 q 7.7333,0.5333 16,1.0667 8.2667,0.5333 16,0.5333 h 0.2667 q 0.5333,0.5333 0.5333,1.0667 v 0.2666 q 1.0667,-1.6 2.4,-1.3333 h 0.2667 v 0.2667 q 0.2666,1.3333 0.2666,2.4 0,1.0666 0,2.1333 0,2.6667 -0.2666,5.3333 0,2.6667 -0.2667,5.0667 -0.8,5.3333 -0.8,10.4 0,1.6 0,3.2 0,1.3333 0.2667,2.9333 -0.2667,2.1334 -0.5334,4.5334 0,2.4 0,4.5333 0,13.0667 4.2667,25.0667 1.0667,-1.0667 1.8667,-0.5334 0.2666,0 0.8,0.5334 9.6,-1.6 17.6,2.1333 6.9333,1.6 12.5333,6.6667 5.6,4.8 10.1333,10.1333 l 1.6,1.6 q 6.9334,11.4667 6.9334,29.8667 0,7.7333 -1.0667,15.4666 -1.0667,7.7334 -2.4,15.2 -0.5333,11.4667 -8,20.8 -7.2,9.0667 -19.2,13.3334 -6.1333,2.1333 -13.3333,1.3333 -6.9334,-0.8 -13.3334,-4.2667 0.2667,0.2667 0.2667,0.8 0,0.5334 -0.2667,1.0667 0,0.2667 0,0.8 0,0.5333 -0.2666,0.8 0,0.2667 0,0.8 0,1.0667 0.8,2.1333 v 0.2667 q 0.2666,0 0.2666,0.5333 0,1.3334 -1.8666,1.6 v 0.2667 q -2.9334,-0.5333 -5.6,-0.8 -2.6667,0 -5.6,0 -2.1334,-0.2667 -4.5334,-0.2667 -2.4,0 -4.5333,-0.2666 -1.8667,0 -3.7333,0 -1.6,0 -3.4667,-0.2667 -3.7333,0 -7.2,0 -3.2,0.2667 -6.4,1.0667 h -0.2667 v -0.2667 q -0.8,-0.8 -0.8,-1.6 0,-0.8 0.5334,-1.8667 0,-0.2666 0,-0.5333 0.2666,-0.2667 0.2666,-0.8 0,-0.5333 -0.2666,-0.8 l -0.2667,-0.2667 h 0.2667 q 0.2666,-1.3333 0.2666,-2.1333 0.2667,-1.0667 0.2667,-2.4 0,-1.0667 -0.2667,-2.1333 0,-1.0667 0,-2.4 -0.2666,-1.3334 -0.5333,-2.4 0,-1.0667 0,-2.4 -0.2667,-2.6667 -0.5333,-5.0667 -0.2667,-2.6667 -0.8,-5.0667 -0.5334,-4.2666 -1.0667,-8.5333 -0.5333,-4.2667 -1.0667,-8.8 0.2667,-2.6667 0.2667,-5.0667 0.2667,-2.4 0.2667,-5.0666 v -4.8 l -0.2667,-5.8667 q 0,-1.8667 -0.2667,-3.4667 0,-1.8666 0,-4 0,-4.2666 0.2667,-8.5333 0.2667,-4.2667 0.8,-8.8 0.5333,-4 0.8,-8 0.2667,-4.2667 0.2667,-8.5333 l 0.2666,-10.4 q 0,-12.5334 0.2667,-24.2667 0.5333,-11.7333 2.4,-23.4667 0.8,-2.9333 1.0667,-6.1333 0.2666,-3.2 0.5333,-6.6667 0.2667,-1.8666 0.2667,-3.7333 0,-1.8667 0.2666,-4 z m -0.2667,182.1333 q 0.5334,-0.5333 0.5334,-1.0667 0,-0.5333 0.2666,-1.3333 0,-1.6 0.5334,-1.8667 0.5333,-0.2666 1.6,-0.2666 0.5333,-1.0667 0.5333,-2.1334 0,-1.0666 -0.2667,-1.6 -1.3333,-8.5333 -2.1333,-17.3333 -0.5333,-8.8 -0.5333,-17.8667 0,-6.9333 0.2666,-13.6 0.2667,-6.9333 0.5334,-13.8666 0.2666,-6.9334 0.5333,-13.3334 0.2667,-6.4 0.2667,-12.8 0,-1.8666 0,-3.4666 0,-1.8667 -0.2667,-3.7334 1.0667,-12.2666 1.6,-24.8 0.5333,-10.1333 1.0667,-19.4666 0.5333,-9.3334 1.8666,-18.9334 -0.8,-0.8 -1.6,-1.8666 -0.5333,-1.3334 -1.0666,-2.6667 -0.5334,-0.8 -0.8,-1.6 -0.2667,-0.8 -0.8,-1.3333 0,4.8 -0.8,9.3333 -0.5334,4.2667 -1.3334,8.8 -0.8,4.5333 -1.6,9.0667 -0.5333,4.2666 -0.5333,8.8 v 2.1333 q 0.2667,1.8667 0.2667,3.7333 0,1.6 0,3.4667 0,9.3333 -0.5334,18.4 -0.2666,9.0667 -0.8,18.1333 -0.5333,8.5334 -1.0666,17.6 -0.5334,8.8 -0.5334,17.8667 0,4.2667 0,8.5333 0.2667,4 0.5334,8.2667 0,0.8 -0.2667,1.6 0,0.5333 0,1.3333 0,0.8 0.5333,2.9334 0.2667,6.6666 2.1334,14.1333 0.5333,4.2667 1.0666,8.5333 0.8,4.2667 0.8,8.8 z m 13.6,-178.1333 q -2.6666,-0.5334 -5.3333,-0.8 -2.4,-0.2667 -4.8,0 0.8,1.8666 1.8667,3.7333 1.0666,1.8667 2.4,4 0,0.2667 0.2666,0.5333 0.2667,0.2667 0.2667,0.5334 0,0 0.2667,0.2666 1.3333,0 2.6666,0 1.6,0 2.9334,0.2667 4,0.5333 8,0.5333 4,-0.2666 7.2,-1.6 l 0.2666,-0.2666 0.2667,0.2666 q 2.1333,1.3334 3.4667,0.2667 1.3333,-1.3333 2.6666,-3.4667 0.8,-1.6 1.8667,-2.6666 -0.5333,0 -1.6,-0.2667 -0.8,-0.2667 -1.8667,-0.5333 l -2.6666,-0.5334 q -4.5334,0.8 -9.0667,0.5334 -4.5333,-0.2667 -9.0667,-0.8 z m 17.0667,10.9333 q -0.8,0.2667 -2.1333,0.2667 -2.4,0.8 -5.0667,0.8 -2.4,-0.2667 -5.0667,-0.5334 -2.4,-0.2666 -4.5333,-0.2666 -2.1333,0 -4.2667,0.5333 -1.3333,7.4667 -2.1333,14.9333 -0.5333,7.4667 -1.0667,14.9334 l -0.2666,0.5333 q 0,8.8 -0.5334,17.8667 -0.2666,9.0666 -0.8,18.6666 -0.5333,11.7334 -1.0666,23.4667 -0.2667,11.4667 -0.2667,23.2 0,7.7333 0.2667,15.2 0.2666,7.4667 0.8,14.6667 l 0.5333,3.7333 q 0.2667,2.6667 0.5333,5.3333 0.2667,2.4 0.8,4.8 0.2667,0.8 0.2667,2.6667 0,1.6 0.2667,2.4 2.6666,-0.2667 5.8666,0.5333 1.0667,0 3.7334,0.5334 1.3333,-0.5334 2.9333,-0.2667 1.6,0 2.9333,0.2667 2.1334,0.2666 4,0.2666 1.8667,0 3.4667,-0.8 v -1.8666 q 0.2667,-0.8 0.2667,-2.9334 0,-1.0666 -0.2667,-1.8666 -0.2667,-1.0667 -1.3333,-1.6 h -0.2667 v -0.2667 q 0.8,-1.8667 1.8667,-2.6667 h 0.2666 q 2.1334,0 3.7334,1.0667 1.8666,0.8 3.2,1.8667 1.3333,0.8 2.4,1.6 1.3333,0.5333 2.6666,1.0666 h 0.2667 q 4.2667,2.4 9.8667,2.6667 5.8666,0.2667 11.2,-1.6 h 0.2666 q 6.4,-1.6 10.4,-5.8667 4,-4.2666 6.1334,-9.6 2.4,-5.6 3.4666,-11.4666 1.0667,-6.1334 1.8667,-11.4667 0.2667,-2.1333 0.2667,-4.2667 0.2666,-2.4 0.5333,-4.8 0.5333,-3.4666 0.8,-6.9333 0.2667,-3.7333 0.2667,-7.4667 0,-6.1333 -1.3334,-12 -1.3333,-5.8666 -5.3333,-10.4 -5.6,-6.6666 -12.8,-9.8666 -6.9333,-3.2 -13.8667,-2.4 l -4,0.8 q -2.9333,0.5333 -5.8666,1.3333 -2.6667,0.8 -4.8,2.4 l -0.2667,0.2667 q -0.5333,-0.2667 -1.6,0.2666 -0.5333,0.2667 -1.3333,0.5334 -0.5334,0 -1.3334,-1.0667 l -0.2666,-0.2667 q 0.2666,-1.3333 0.2666,-2.4 0.2667,-1.0666 0.2667,-2.4 0,-3.7333 -0.8,-7.2 -0.5333,-3.4666 -1.0667,-7.2 l -1.6,-9.6 q 0,-1.3333 -0.2666,-2.9333 0,-1.6 0,-3.2 0,-3.4667 0.2666,-6.6667 0.2667,-3.4666 0.8,-6.9333 0.8,-6.6667 0.8,-13.0667 0,-1.0666 0,-2.1333 0,-1.0667 -0.2666,-2.1333 -0.5334,-1.0667 -1.3334,-1.0667 -0.5333,0 -1.3333,0 z m -16.8,166.6667 q -2.4,-0.2667 -4.8,-0.5334 -2.4,-0.2666 -4.5333,0.2667 -1.3334,0.2667 -2.1334,1.0667 -0.5333,0.5333 -1.3333,1.6 -0.2667,0.5333 -0.8,1.0666 6.4,0 12.2667,0.2667 6.1333,0 12.2666,0.2667 h 10.1334 q -0.2667,-1.0667 -2.4,-2.6667 -1.3334,-0.2667 -2.6667,-0.2667 -1.3333,0 -2.6667,-0.2666 -1.3333,0 -2.9333,0 -1.3333,-0.2667 -2.6667,-0.2667 -1.6,0 -3.7333,0 -1.8667,-0.2667 -4,-0.5333 z m 18.9333,-2.4 q 0.5334,0.5333 0.8,0.8 0.5334,0 1.0667,0.5333 0.2667,0.2667 0.5333,0.5333 0.2667,0 0.5334,0.2667 0,-1.6 -0.8,-3.2 -0.5334,-1.6 -2.1334,-2.6667 z m 6.6667,-170.9334 q -0.5333,1.0667 -1.3333,2.4 -0.8,1.0667 -1.0667,1.0667 0,0.5333 0,0.8 0.2667,0 0.2667,0.5333 0,3.4667 -0.5334,6.9334 -0.2666,3.4666 -0.8,6.9333 -0.5333,3.4667 -0.8,6.9333 -0.2666,3.4667 -0.2666,7.2 v 4.5334 1.8666 q 0,3.7334 0.5333,7.4667 0.8,3.4667 1.3333,7.2 0.5334,3.7333 1.0667,7.2 0.8,3.4667 0.8,7.2 v 1.0667 q 0.5333,-1.0667 1.3333,-1.8667 1.0667,-1.3333 1.8667,-2.4 0.8,-1.0667 1.3333,-2.4 0,0 -0.5333,-0.5333 -0.2667,-0.2667 -0.5333,-0.2667 l -0.2667,-0.2667 q -0.2667,-1.6 -0.5333,-3.2 -0.2667,-1.6 -0.8,-3.4666 -0.8,-3.7334 -1.6,-7.2 -0.5334,-3.4667 -0.5334,-6.4 v -8 q 0,-4.8 0,-9.6 0.2667,-5.0667 0.5334,-9.8667 0.2666,-3.4667 0.2666,-6.9333 0.2667,-3.4667 0.2667,-6.9334 z m 47.2,81.6 q -6.9333,-9.8666 -17.3333,-14.9333 -10.1334,-5.3333 -20.8,-4 -1.8667,0.2667 -2.9334,1.6 -1.0666,1.3333 -1.8666,2.9333 l -0.8,1.6 q 0.5333,-0.2666 1.8666,-0.5333 1.6,-0.2667 2.9334,-0.8 l 3.7333,-1.0667 q 7.7333,-1.0666 14.4,0.8 6.6667,1.6 11.2,6.1334 11.2,8 13.0667,23.4666 0.2666,2.1334 0.2666,4.2667 0.2667,1.8667 0.2667,4 0,5.0667 -0.5333,10.1333 -0.5334,5.0667 -1.0667,9.8667 -0.5333,2.1333 -0.8,4 0,1.8667 -0.2667,3.7333 -1.3333,9.0667 -4.8,18.1334 -3.4666,9.0666 -11.7333,15.2 l -0.2667,0.2666 q -1.3333,0.2667 -2.9333,0.8 -1.3333,0.5334 -2.9333,1.0667 -1.3334,0.5333 -2.4,1.0667 -1.0667,0.2666 -2.4,0.5333 v 0.2667 q -5.0667,1.0666 -10.6667,0.5333 -5.3333,-0.8 -10.1333,-2.9333 -0.8,-1.3334 -3.2,-2.1334 h -0.2667 q 8,6.9334 16,7.4667 9.3333,1.8667 19.2,-3.7333 8,-4.8 14.6667,-13.8667 7.4666,-20.2667 7.4666,-44 0,-2.4 -0.2666,-4.8 0,-2.6667 -0.2667,-5.0667 l -0.5333,-3.4666 q -0.8,-4.5334 -1.8667,-8.8 -1.0667,-4.5334 -4,-7.7334 z m -48.5333,21.8667 q 2.4,-1.0667 5.8666,-2.1333 3.4667,-1.0667 6.9334,-1.0667 3.7333,-0.2667 6.9333,1.0667 3.2,1.0666 5.3333,4.2666 2.1334,4 2.4,9.3334 0.2667,5.0666 -1.0666,9.0666 -1.6,4.5334 -5.0667,6.9334 -3.4667,2.4 -7.2,4 h -0.2667 l -0.8,0.2666 q -2.6666,0.8 -5.8666,1.3334 -2.9334,0.2666 -5.0667,-1.8667 h -0.2667 v -0.2667 q 0,-2.1333 -0.5333,-4.2666 -0.5333,-2.4 -1.0667,-4.5334 -0.5333,-1.0666 -0.8,-1.8666 0,-1.0667 -0.5333,-2.1334 0.2667,-2.1333 0.2667,-3.7333 0,-1.8667 0,-3.7333 0,-2.6667 0,-5.0667 0,-2.6667 0.5333,-5.3333 z m 22.9333,3.7333 q -7.2,-7.7333 -19.4667,-2.1333 0.5334,1.8667 1.3334,2.4 0.8,0.5333 3.7333,-0.5333 1.6,-0.5334 3.2,-0.8 1.8667,-0.2667 3.4667,1.3333 5.3333,0.8 7.7333,8.8 0,1.8667 -0.8,3.2 -0.8,1.3333 -1.8667,2.6667 l -0.8,1.0666 q -1.3333,1.6 -2.9333,2.6667 -1.3333,0.8 -2.6667,1.8667 -1.8666,1.0666 -3.4666,2.1333 -1.6,1.0667 -2.4,2.9333 5.6,0 10.1333,-3.2 4.8,-3.2 6.4,-8.2666 0,-0.5334 -0.2667,-1.3334 0,-0.8 0,-1.6 0,-1.6 0.2667,-2.4 v -2.6666 q 0,-4.2667 -1.6,-6.1334 z m -21.0667,6.9334 q 0,8.2666 2.9334,18.4 0.5333,-0.8 1.6,-2.4 1.0666,-1.6 1.3333,-2.1334 -0.2667,0 -0.5333,-0.2666 -0.2667,0 -0.5334,-0.2667 v -0.2667 q 0.2667,-1.0666 0.2667,-1.8666 0.2667,-0.8 0.2667,-1.8667 0,-1.6 -0.2667,-3.2 0,-1.6 -0.2667,-3.2 -0.2666,-1.3333 -0.5333,-2.4 0,-1.0667 0,-2.4 -0.2667,-0.2667 -1.8667,-1.3333 -1.6,-1.3334 -2.1333,-1.8667 -0.2667,1.3333 -0.2667,2.6667 0,1.0666 0,2.4 z m 10.6667,-4 q -2.4,-0.5334 -3.2,-0.2667 v 1.6 q 0,4.2667 0.8,8.2667 0,1.3333 0,2.6666 0.2667,1.3334 0.2667,2.6667 0.2666,-0.2667 0.8,-0.2667 0.5333,0 0.5333,0.5334 0.5333,-0.5334 1.0667,-1.0667 0.8,-0.5333 1.6,-1.0667 2.1333,-1.6 3.7333,-3.2 1.6,-1.6 1.6,-4.2666 -0.2667,0 -0.2667,-0.2667 0,-0.2667 -0.2666,-0.2667 0,0 0,-0.2666 -0.2667,-0.2667 -0.2667,-0.5334 -1.3333,-1.6 -2.9333,-2.9333 -1.3334,-1.3333 -3.4667,-1.3333 z"
           style="font-style:normal;font-variant:normal;font-weight:normal;font-stretch:normal;font-size:266.66665649px;font-family:'Key Tab Metal';-inkscape-font-specification:'Key Tab Metal';fill:#4e4e4e;fill-opacity:1;stroke:#4e4e4e;stroke-width:7;stroke-linecap:round;stroke-linejoin:round;stroke-miterlimit:4;stroke-dasharray:none;stroke-opacity:1"
           id="path2153" />
        <path
           d="m 1970.2951,1139.0825 q 3.7333,-1.0667 7.7333,-0.8 4,0 7.7333,0.5333 5.0667,0.8 9.6,0.8 h 0.2667 q 0.8,0.8 2.4,0.8 h 0.2667 q 10.4,4.2667 15.4666,10.4 5.3334,5.8667 7.4667,10.6667 1.8667,3.7333 3.2,7.2 0.8,1.8666 1.3333,3.7333 0.8,1.6 1.8667,3.2 0.5333,1.0667 0.5333,2.6667 0,1.8666 -0.2666,2.9333 -0.5334,2.1333 -0.5334,3.2 v 0.5333 q -0.5333,7.4667 -2.1333,14.4 -1.6,6.6667 -3.4667,13.6 l -3.2,11.2 q -0.8,3.2 -2.1333,6.6667 -1.3333,3.4667 -3.4667,6.6667 -2.1333,3.2 -5.0666,5.8666 -2.9334,2.4 -6.9334,3.7334 v 0.2666 q -2.4,0.2667 -5.8666,1.3334 -3.2,1.0666 -6.6667,1.6 -3.2,0.8 -6.1333,0 -2.1334,0.5333 -4.2667,0 -1.8667,-0.2667 -4,-0.8 -1.3333,-0.5334 -2.9333,-0.8 -1.6,-0.2667 -3.2,-0.2667 h -0.2667 v -0.2667 q -2.4,-1.6 -5.3333,-2.4 -2.1334,-0.8 -4.2667,-1.6 -2.1333,-1.0666 -3.4667,-3.4666 -9.3333,-4.8 -15.2,-14.1334 -5.6,-9.6 -5.6,-19.7333 -0.2666,-1.8667 -0.2666,-3.7333 0,-1.8667 0,-3.7334 0,-20 10.1333,-36.2666 1.6,-3.7334 4.2667,-7.4667 2.6666,-4 5.6,-7.4667 0.8,-1.0666 1.3333,-1.8666 0.8,-0.8 1.6,-1.8667 2.4,-2.1333 5.3333,-2.9333 2.9334,-1.0667 5.8667,-1.8667 z m 27.4666,4.2666 q -9.0666,-1.8666 -18.6666,-2.1333 -9.6,-0.2667 -18.1334,3.4667 -0.2666,0.2666 -0.5333,0.2666 0,0 -0.2667,0.2667 l -0.5333,0.5333 q -1.6,1.3334 -3.2,2.9334 -1.3333,1.3333 -2.4,3.4666 -5.6,5.8667 -8.8,13.0667 -2.9333,6.9333 -5.6,13.8667 -0.5333,1.0666 -0.8,1.8666 -0.2667,0.5334 -0.2667,0.8 0,0.2667 -0.2666,0.5334 -0.2667,0.2666 -0.2667,0.5333 -1.6,9.6 -1.6,17.6 0,5.6 0.8,10.6667 1.3333,7.7333 4.5333,13.8666 3.4667,5.8667 8.8,10.1334 1.3334,0.5333 2.6667,1.6 1.6,0.8 2.9333,1.8666 1.6,1.3334 3.2,2.4 1.6,0.8 3.4667,1.3334 h 0.2667 q 1.8666,2.1333 4.2666,2.9333 2.6667,0.5333 5.6,1.0667 1.0667,0.2666 2.1334,0.5333 1.0666,0 2.1333,0.5333 4.5333,0.8 8.2667,0 4,-0.5333 8,-1.3333 1.6,-0.5333 3.2,-0.8 1.6,-0.2667 3.2,-0.5333 6.9333,-2.4 10.6666,-8.8 3.7334,-6.4 6.1334,-14.1334 1.6,-8 4,-15.2 1.8666,-6.4 3.2,-12.8 0.5333,-1.6 0.5333,-2.9333 0,-1.6 0,-3.2 0,-2.1333 0,-4 0.2667,-2.1333 0.8,-4.2667 -2.4,-5.0666 -4,-9.8666 -1.3333,-3.4667 -2.9333,-6.9334 -1.3334,-3.4666 -3.4667,-6.6666 h -0.2667 q -3.7333,-3.7334 -8,-7.2 -4.2666,-3.7334 -8.8,-5.3334 z m -26.9333,0 q 2.9333,-2.1333 6.1333,-1.6 3.4667,0.2667 6.4,1.3334 1.8667,0.5333 3.4667,1.0666 1.8667,0.5334 3.7333,0.5334 2.1334,-0.8 4,0.2666 1.8667,0.8 3.4667,2.1334 1.8667,1.3333 3.7333,2.4 h 0.2667 q 12.8,6.4 17.6,20.5333 2.1333,7.7333 2.1333,16.5333 0,4.8 -0.8,10.4 -0.8,2.9334 -1.6,5.8667 -0.5333,2.6667 -1.0666,5.6 -1.3334,6.6667 -3.2,13.0667 -1.8667,6.4 -6.4,11.4666 -1.6,3.7334 -4.5334,5.6 -2.9333,1.8667 -6.1333,3.2 -2.9333,1.0667 -4.8,2.1334 l -0.2667,0.2666 q -0.8,0 -1.8666,0.2667 -0.8,0 -1.8667,0 -2.9333,0.5333 -6.1333,0.8 -2.9334,0.2667 -5.3334,-0.8 -4.2666,-0.5333 -9.0666,-1.8667 -4.8,-1.3333 -9.3334,-3.7333 -4.5333,-2.4 -8.5333,-5.6 -4,-3.4667 -6.6667,-8.2667 -4.8,-13.6 -4.8,-28 0,-11.2 3.2,-20.5333 2.4,-11.2 10.1334,-20.2667 8,-9.0666 18.1333,-12.8 z m 4.8,1.6 q -9.3333,1.3334 -16,8.5334 -6.6667,7.2 -12,15.2 -5.3333,12.2666 -5.3333,27.2 v 1.0666 q 0,6.9334 1.0666,13.8667 1.0667,6.6667 3.2,12.8 2.9334,5.6 8.2667,8.8 5.6,3.2 10.9333,5.6 l 1.0667,0.5333 q 0.2667,0.2667 0.2667,0.2667 0.2666,0 0.5333,0.2667 l 0.2667,0.2666 q 0,0 2.1333,0.5334 2.1333,0.2666 4.5333,0.8 2.6667,0.5333 4.8,1.0666 2.1334,0.5334 2.1334,0.5334 0,0 1.6,-0.2667 1.8666,-0.2667 3.7333,-0.2667 2.1333,-0.2666 3.7333,-0.2666 1.8667,-0.2667 1.8667,-0.2667 0,0 1.6,-0.8 1.6,-1.0667 3.4667,-1.8667 2.1333,-1.0666 3.7333,-1.8666 1.8667,-0.8 1.8667,-0.8 1.6,-1.8667 2.6666,-3.7334 1.3334,-1.8666 2.6667,-4 0.8,-1.3333 1.3333,-2.4 0.8,-1.0666 1.8667,-2.4 l 0.8,-2.9333 q 2.4,-8.2667 4.5333,-17.0667 2.1334,-9.0666 2.1334,-17.8666 0,-6.4 -1.6,-12.5334 -1.6,-6.1333 -5.6,-11.4666 -5.8667,-5.6 -12,-9.8667 -5.8667,-4.2667 -13.0667,-4.8 -1.8667,0.5333 -3.4667,0 -1.3333,-0.5333 -2.6666,-1.0667 -1.3334,-0.5333 -2.6667,-0.8 -1.0667,-0.5333 -2.4,0 z m -2.4,25.6 q 2.1333,-1.3333 5.0667,-1.0666 2.9333,0 5.0666,1.3333 2.6667,0.8 4.5334,2.6667 1.8666,1.6 4,3.4666 0.8,0.8 1.3333,1.6 0.8,0.8 1.6,1.3334 1.8667,2.1333 2.4,4.5333 0.5333,2.4 0.5333,5.0667 0,1.6 -0.2666,3.4666 0,1.6 -0.2667,3.4667 l -0.8,6.4 q -0.5333,8.5333 -10.4,12 -9.6,3.7333 -18.4,-2.9333 -2.4,-2.9334 -3.2,-6.1334 -0.8,-3.4666 -1.3333,-7.2 -0.2667,-1.8666 -0.5334,-3.4666 -0.2666,-1.8667 -0.8,-4 h -0.2666 q 0.8,-5.3334 3.2,-11.2 2.4,-6.1334 8.5333,-9.3334 z m -8.5333,22.1334 q 0,10.1333 6.1333,17.8666 3.7333,2.4 8.2667,2.4 4.8,-0.2666 9.3333,-2.4 4,-2.1333 4.8,-6.4 1.0667,-4.2666 1.3333,-8.8 0,-1.8666 0,-3.4666 0.2667,-1.6 0.5334,-3.2 -0.5334,-0.8 -1.0667,-1.8667 -0.2667,-1.0667 -0.8,-2.1333 -0.8,-2.1334 -2.1333,-4.2667 -1.0667,-2.1333 -3.2,-3.4667 -4.5334,-4 -13.3334,-4 -6.4,4 -8,9.3334 v 0.2666 q -0.8,2.4 -1.3333,5.0667 -0.5333,2.6667 -0.5333,5.0667 z m 10.6666,-18.4 v 0.2666 q 8.2667,0.8 15.2,7.7334 1.8667,2.9333 2.9334,6.6666 1.3333,3.4667 0,7.2 -2.1334,4.5334 -5.0667,8.5334 -2.9333,4 -8,5.3333 -2.9333,-0.5333 -6.1333,-1.0667 -2.9334,-0.8 -4.5334,-3.7333 l -3.2,-7.7333 q 0.2667,-1.3334 0.2667,-2.4 0.2667,-1.3334 0.2667,-2.6667 0.5333,-5.3333 1.6,-10.1333 1.0666,-4.8 6.4,-7.7334 z m 6.6667,5.8666 q -1.3333,-1.0666 -2.9333,-1.6 -1.6,-0.8 -3.4667,-0.2666 -4.2667,2.9333 -5.0667,7.7333 -0.8,4.8 -0.8,9.3333 v 0.8 q 0,0.5334 -0.2666,0.8 0,0.2667 0,0.5334 1.3333,1.6 1.8666,3.4666 0.5334,2.4 1.8667,3.7334 2.1333,1.3333 5.0667,1.8666 3.2,0.5334 5.8666,-1.3333 2.1334,-2.4 4.5334,-5.6 2.6666,-3.4667 2.6666,-7.7333 0,-1.0667 -0.2666,-1.6 v -0.2667 q -1.0667,-2.4 -2.1334,-4.5333 -1.0666,-2.1334 -3.2,-3.7334 -1.0666,-0.2666 -1.8666,-0.5333 -0.8,-0.5333 -1.8667,-1.0667 z"
           style="font-style:normal;font-variant:normal;font-weight:normal;font-stretch:normal;font-size:266.66665649px;font-family:'Key Tab Metal';-inkscape-font-specification:'Key Tab Metal';fill:#4e4e4e;fill-opacity:1;stroke:#4e4e4e;stroke-width:7;stroke-linecap:round;stroke-linejoin:round;stroke-miterlimit:4;stroke-dasharray:none;stroke-opacity:1"
           id="path2155" />
        <path
           d="m 2072.8992,1139.0825 q 3.7334,-1.0667 7.7334,-0.8 4,0 7.7333,0.5333 5.0667,0.8 9.6,0.8 h 0.2667 q 0.8,0.8 2.4,0.8 h 0.2666 q 10.4,4.2667 15.4667,10.4 5.3333,5.8667 7.4667,10.6667 1.8666,3.7333 3.2,7.2 0.8,1.8666 1.3333,3.7333 0.8,1.6 1.8667,3.2 0.5333,1.0667 0.5333,2.6667 0,1.8666 -0.2667,2.9333 -0.5333,2.1333 -0.5333,3.2 v 0.5333 q -0.5333,7.4667 -2.1333,14.4 -1.6,6.6667 -3.4667,13.6 l -3.2,11.2 q -0.8,3.2 -2.1333,6.6667 -1.3334,3.4667 -3.4667,6.6667 -2.1333,3.2 -5.0667,5.8666 -2.9333,2.4 -6.9333,3.7334 v 0.2666 q -2.4,0.2667 -5.8667,1.3334 -3.2,1.0666 -6.6666,1.6 -3.2,0.8 -6.1334,0 -2.1333,0.5333 -4.2666,0 -1.8667,-0.2667 -4,-0.8 -1.3334,-0.5334 -2.9334,-0.8 -1.6,-0.2667 -3.2,-0.2667 h -0.2666 v -0.2667 q -2.4,-1.6 -5.3333,-2.4 -2.1334,-0.8 -4.2667,-1.6 -2.1333,-1.0666 -3.4667,-3.4666 -9.3333,-4.8 -15.2,-14.1334 -5.6,-9.6 -5.6,-19.7333 -0.2666,-1.8667 -0.2666,-3.7333 0,-1.8667 0,-3.7334 0,-20 10.1333,-36.2666 1.6,-3.7334 4.2667,-7.4667 2.6666,-4 5.6,-7.4667 0.8,-1.0666 1.3333,-1.8666 0.8,-0.8 1.6,-1.8667 2.4,-2.1333 5.3333,-2.9333 2.9333,-1.0667 5.8667,-1.8667 z m 27.4667,4.2666 q -9.0667,-1.8666 -18.6667,-2.1333 -9.6,-0.2667 -18.1333,3.4667 -0.2666,0.2666 -0.5333,0.2666 0,0 -0.2667,0.2667 l -0.5333,0.5333 q -1.6,1.3334 -3.2,2.9334 -1.3333,1.3333 -2.4,3.4666 -5.6,5.8667 -8.8,13.0667 -2.9333,6.9333 -5.6,13.8667 -0.5333,1.0666 -0.8,1.8666 -0.2667,0.5334 -0.2667,0.8 0,0.2667 -0.2666,0.5334 -0.2667,0.2666 -0.2667,0.5333 -1.6,9.6 -1.6,17.6 0,5.6 0.8,10.6667 1.3333,7.7333 4.5333,13.8666 3.4667,5.8667 8.8,10.1334 1.3334,0.5333 2.6667,1.6 1.6,0.8 2.9333,1.8666 1.6,1.3334 3.2,2.4 1.6,0.8 3.4667,1.3334 h 0.2667 q 1.8666,2.1333 4.2666,2.9333 2.6667,0.5333 5.6,1.0667 1.0667,0.2666 2.1333,0.5333 1.0667,0 2.1334,0.5333 4.5333,0.8 8.2666,0 4,-0.5333 8,-1.3333 1.6,-0.5333 3.2,-0.8 1.6,-0.2667 3.2,-0.5333 6.9334,-2.4 10.6667,-8.8 3.7333,-6.4 6.1333,-14.1334 1.6,-8 4,-15.2 1.8667,-6.4 3.2,-12.8 0.5334,-1.6 0.5334,-2.9333 0,-1.6 0,-3.2 0,-2.1333 0,-4 0.2666,-2.1333 0.8,-4.2667 -2.4,-5.0666 -4,-9.8666 -1.3334,-3.4667 -2.9334,-6.9334 -1.3333,-3.4666 -3.4666,-6.6666 h -0.2667 q -3.7333,-3.7334 -8,-7.2 -4.2667,-3.7334 -8.8,-5.3334 z m -26.9333,0 q 2.9333,-2.1333 6.1333,-1.6 3.4667,0.2667 6.4,1.3334 1.8667,0.5333 3.4667,1.0666 1.8666,0.5334 3.7333,0.5334 2.1333,-0.8 4,0.2666 1.8667,0.8 3.4667,2.1334 1.8666,1.3333 3.7333,2.4 h 0.2667 q 12.8,6.4 17.6,20.5333 2.1333,7.7333 2.1333,16.5333 0,4.8 -0.8,10.4 -0.8,2.9334 -1.6,5.8667 -0.5333,2.6667 -1.0667,5.6 -1.3333,6.6667 -3.2,13.0667 -1.8666,6.4 -6.4,11.4666 -1.6,3.7334 -4.5333,5.6 -2.9333,1.8667 -6.1333,3.2 -2.9334,1.0667 -4.8,2.1334 l -0.2667,0.2666 q -0.8,0 -1.8667,0.2667 -0.8,0 -1.8666,0 -2.9334,0.5333 -6.1334,0.8 -2.9333,0.2667 -5.3333,-0.8 -4.2667,-0.5333 -9.0667,-1.8667 -4.8,-1.3333 -9.3333,-3.7333 -4.5333,-2.4 -8.5333,-5.6 -4,-3.4667 -6.6667,-8.2667 -4.8,-13.6 -4.8,-28 0,-11.2 3.2,-20.5333 2.4,-11.2 10.1334,-20.2667 8,-9.0666 18.1333,-12.8 z m 4.8,1.6 q -9.3334,1.3334 -16,8.5334 -6.6667,7.2 -12,15.2 -5.3333,12.2666 -5.3333,27.2 v 1.0666 q 0,6.9334 1.0666,13.8667 1.0667,6.6667 3.2,12.8 2.9334,5.6 8.2667,8.8 5.6,3.2 10.9333,5.6 l 1.0667,0.5333 q 0.2666,0.2667 0.2666,0.2667 0.2667,0 0.5334,0.2667 l 0.2666,0.2666 q 0,0 2.1334,0.5334 2.1333,0.2666 4.5333,0.8 2.6667,0.5333 4.8,1.0666 2.1333,0.5334 2.1333,0.5334 0,0 1.6,-0.2667 1.8667,-0.2667 3.7334,-0.2667 2.1333,-0.2666 3.7333,-0.2666 1.8667,-0.2667 1.8667,-0.2667 0,0 1.6,-0.8 1.6,-1.0667 3.4666,-1.8667 2.1334,-1.0666 3.7334,-1.8666 1.8666,-0.8 1.8666,-0.8 1.6,-1.8667 2.6667,-3.7334 1.3333,-1.8666 2.6667,-4 0.8,-1.3333 1.3333,-2.4 0.8,-1.0666 1.8667,-2.4 l 0.8,-2.9333 q 2.4,-8.2667 4.5333,-17.0667 2.1333,-9.0666 2.1333,-17.8666 0,-6.4 -1.6,-12.5334 -1.6,-6.1333 -5.6,-11.4666 -5.8666,-5.6 -12,-9.8667 -5.8666,-4.2667 -13.0666,-4.8 -1.8667,0.5333 -3.4667,0 -1.3333,-0.5333 -2.6667,-1.0667 -1.3333,-0.5333 -2.6666,-0.8 -1.0667,-0.5333 -2.4,0 z m -2.4,25.6 q 2.1333,-1.3333 5.0666,-1.0666 2.9334,0 5.0667,1.3333 2.6667,0.8 4.5333,2.6667 1.8667,1.6 4,3.4666 0.8,0.8 1.3334,1.6 0.8,0.8 1.6,1.3334 1.8666,2.1333 2.4,4.5333 0.5333,2.4 0.5333,5.0667 0,1.6 -0.2667,3.4666 0,1.6 -0.2666,3.4667 l -0.8,6.4 q -0.5334,8.5333 -10.4,12 -9.6,3.7333 -18.4,-2.9333 -2.4,-2.9334 -3.2,-6.1334 -0.8,-3.4666 -1.3333,-7.2 -0.2667,-1.8666 -0.5334,-3.4666 -0.2666,-1.8667 -0.8,-4 h -0.2666 q 0.8,-5.3334 3.1999,-11.2 2.4,-6.1334 8.5334,-9.3334 z m -8.5334,22.1334 q 0,10.1333 6.1334,17.8666 3.7333,2.4 8.2666,2.4 4.8,-0.2666 9.3334,-2.4 4,-2.1333 4.8,-6.4 1.0666,-4.2666 1.3333,-8.8 0,-1.8666 0,-3.4666 0.2667,-1.6 0.5333,-3.2 -0.5333,-0.8 -1.0666,-1.8667 -0.2667,-1.0667 -0.8,-2.1333 -0.8,-2.1334 -2.1334,-4.2667 -1.0666,-2.1333 -3.2,-3.4667 -4.5333,-4 -13.3333,-4 -6.4,4 -8,9.3334 v 0.2666 q -0.8,2.4 -1.3333,5.0667 -0.5334,2.6667 -0.5334,5.0667 z m 10.6667,-18.4 v 0.2666 q 8.2667,0.8 15.2,7.7334 1.8667,2.9333 2.9333,6.6666 1.3334,3.4667 0,7.2 -2.1333,4.5334 -5.0666,8.5334 -2.9334,4 -8,5.3333 -2.9334,-0.5333 -6.1334,-1.0667 -2.9333,-0.8 -4.5333,-3.7333 l -3.2,-7.7333 q 0.2667,-1.3334 0.2667,-2.4 0.2666,-1.3334 0.2666,-2.6667 0.5334,-5.3333 1.6,-10.1333 1.0667,-4.8 6.4,-7.7334 z m 6.6667,5.8666 q -1.3334,-1.0666 -2.9334,-1.6 -1.6,-0.8 -3.4666,-0.2666 -4.2667,2.9333 -5.0667,7.7333 -0.8,4.8 -0.8,9.3333 v 0.8 q 0,0.5334 -0.2667,0.8 0,0.2667 0,0.5334 1.3334,1.6 1.8667,3.4666 0.5333,2.4 1.8667,3.7334 2.1333,1.3333 5.0666,1.8666 3.2,0.5334 5.8667,-1.3333 2.1333,-2.4 4.5333,-5.6 2.6667,-3.4667 2.6667,-7.7333 0,-1.0667 -0.2667,-1.6 v -0.2667 q -1.0666,-2.4 -2.1333,-4.5333 -1.0667,-2.1334 -3.2,-3.7334 -1.0667,-0.2666 -1.8667,-0.5333 -0.8,-0.5333 -1.8666,-1.0667 z"
           style="font-style:normal;font-variant:normal;font-weight:normal;font-stretch:normal;font-size:266.66665649px;font-family:'Key Tab Metal';-inkscape-font-specification:'Key Tab Metal';fill:#4e4e4e;fill-opacity:1;stroke:#4e4e4e;stroke-width:7;stroke-linecap:round;stroke-linejoin:round;stroke-miterlimit:4;stroke-dasharray:none;stroke-opacity:1"
           id="path2157" />
        <path
           d="m 2190.17,1056.1491 v 0.2667 q 0.2667,1.3333 0.2667,4 0,3.7333 -0.2667,7.7333 0,3.7334 0,8 -0.2666,4.2667 -0.2666,8.5334 0,4 0,8.2666 0,5.6 0,11.2 0.2666,5.6 0.8,10.9334 v 4.2666 q 0,2.1334 0,4.2667 0.2666,2.1333 0.2666,4.2667 0.2667,2.1333 0.2667,4.2666 0.2667,1.8667 0.2667,4 0,1.8667 -0.2667,3.7334 0,1.6 -0.2667,3.4666 1.3334,-2.4 2.9334,-4.5333 1.8666,-2.1333 3.4666,-4.2667 2.9334,-3.4666 5.3334,-6.9333 2.4,-3.4667 4,-7.2 v -0.2667 l 2.9333,-2.9333 0.2667,0.2667 q 2.4,0.2666 4.8,0.5333 2.6666,0 5.0666,0.2667 6.1334,0.5333 11.7334,1.3333 5.6,0.5333 11.2,2.4 h 3.2 l -0.2667,0.5333 q 0,0.2667 0.8,0.5334 h 0.2667 0.5333 0.2667 l 0.8,0.8 -0.2667,0.2666 q -1.0667,2.4 -1.8667,5.0667 -0.8,2.4 -1.8666,5.0667 -1.6,4.8 -3.4667,9.6 -1.6,4.5333 -4.5333,9.0666 -1.3334,4 -3.2,7.7334 -1.8667,3.7333 -4,7.4666 -1.3334,2.6667 -2.6667,5.0667 -1.3333,2.4 -2.6667,5.3333 0.5334,0.5334 0.5334,0.8 0,0.5334 -0.2667,0.8 0,0 0,0.2667 v 0.5333 0.2667 q 4.5333,7.7333 8.5333,16 4,8 7.7334,15.7333 2.4,4.8 4.8,9.8667 2.4,4.8 4.8,9.6 v 0.2667 q 0,1.3333 0.5333,2.1333 0.5333,0.8 1.0667,1.8667 1.6,2.1333 1.6,4.2666 v 1.0667 1.0667 0.2666 q -0.5334,1.0667 -1.6,1.0667 -0.8,0 -1.6,0 -1.0667,-0.2667 -1.8667,0 l -0.2667,0.2667 q -2.9333,0.5333 -5.8666,0.8 -2.6667,0.2666 -5.6,0.8 -4.8,0.5333 -9.6,1.0666 -4.8,0.8 -9.0667,2.6667 l -0.2667,0.2667 q -0.5333,-0.2667 -0.8,-0.2667 -0.2666,0.2667 -0.8,0.2667 -1.0666,0.5333 -2.1333,0.5333 l -0.2667,-0.2667 q -6.9333,-10.6666 -13.0666,-21.3333 -5.8667,-10.6667 -12,-21.3333 -0.5334,2.1333 -0.5334,4.2666 0,2.1334 0,4.2667 0,2.1333 0,4.5333 0,2.4 0.2667,4.5334 0,2.4 0,4.8 0.2667,2.4 0.2667,4.5333 0,3.2 -0.2667,6.4 -0.2667,3.2 -1.0667,6.1333 v 0.5334 h -0.2666 q -2.4,-0.8 -6.1334,-0.2667 -1.3333,0.2667 -2.4,0.2667 -1.0666,0 -2.4,0 -6.9333,-0.5334 -13.8666,-0.2667 -6.6667,0.5333 -13.3334,1.0667 l -4.5333,0.5333 v -0.2667 q -1.3333,-2.4 -1.3333,-6.1333 0,-0.8 0,-1.6 0.2666,-1.0667 0.2666,-2.1333 v -3.4667 q 0.8,-16.2667 2.4,-32.2667 0.8,-8.5333 1.3334,-16.8 0.5333,-8.5333 0.8,-16.8 -0.2667,-2.6666 -0.2667,-5.0666 0,-2.6667 0,-5.6 v -1.8667 -1.8667 q 0,-3.7333 -0.2667,-7.4666 0,-4 -0.5333,-7.7334 0.2667,-3.7333 0.2667,-7.4666 0.2666,-4 0.8,-8 0.5333,-4.8 0.8,-9.6 0.2666,-4.8 0.2666,-9.6 0,-1.6 0,-3.2 0,-1.8667 -0.2666,-3.4667 0.5333,-5.3333 0.8,-11.2 0.2666,-6.1333 0.2666,-12.8 0,-2.4 0,-4.5333 0,-2.4 -0.2666,-4.8 l 0.2666,-0.2667 q 0.2667,-0.2667 0.2667,-1.0667 0.2667,-0.8 0.5333,-1.6 0.5334,-0.8 1.8667,-0.5333 h 0.2667 v 0.2667 q 0,1.3333 1.0666,1.6 0,-0.2667 0,-0.2667 0.2667,-0.2667 0.2667,-0.5333 0,-0.2667 0.2667,-0.5334 h 0.2666 q 3.7334,-0.8 7.4667,-1.6 4,-0.8 7.7333,-1.8666 4,-0.8 8,-1.6 4.2667,-1.0667 8.5334,-1.6 z m -38.6666,25.8667 q -0.2667,3.7333 -0.2667,8 0,4 -0.5333,7.7333 0.5333,2.1334 0.5333,4.2667 0,1.8667 0,4 0,4.2667 -0.2667,8.8 -0.2666,4.2667 -0.8,8.8 -0.5333,4.2667 -0.8,8.5333 -0.2666,4 -0.2666,7.7334 v 4.5333 q 0.5333,4 0.5333,8 0,4 0,8 0,11.7333 -0.8,22.9333 -0.5333,11.2 -1.6,22.4 -0.5333,8.5334 -1.3333,17.6 -0.5334,8.8 -1.0667,18.1334 0.2667,0 0.8,1.8666 1.3333,-1.6 2.6667,-3.4666 1.6,-1.8667 1.6,-4 0,-0.2667 -0.2667,-0.2667 0,0 0,-0.2667 -0.5333,-4.8 -1.0667,-9.3333 -0.2666,-4.8 -0.2666,-9.6 0,-6.4 0.5333,-12.8 0.5333,-6.6667 1.0667,-12.8 l 0.5333,-8.8 q 0.8,-32.2667 2.4,-59.4667 1.6,-27.2 4.5333,-50.9333 l -1.8666,-1.8667 q -1.3334,-1.3333 -3.4667,-2.9333 -0.2667,3.7333 -0.5333,7.7333 0,3.7334 0,7.4667 z m 20.8,-21.0667 q -2.1334,0.5334 -4.2667,1.0667 -2.1333,0.2667 -4.2667,0.8 -4.2666,1.8667 -9.0666,2.1333 0.5333,0.5334 1.0666,1.0667 0.5334,0.2667 1.0667,0.8 0.8,0.8 1.6,1.3333 0.2667,0 1.6,0 1.3333,-0.2666 2.9333,-0.5333 1.8667,-0.2667 4.2667,-0.8 3.2,-0.2667 7.2,-2.1333 2.1333,-0.8 4.2667,-1.3334 2.4,-0.8 4.8,-0.5333 0.2666,-0.2667 1.3333,-1.8667 1.0667,-1.8666 1.6,-2.4 -3.7333,0 -7.2,0.8 -3.4667,0.5334 -6.9333,1.6 z m -1.3334,7.4667 q -2.9333,0.8 -5.8666,1.6 -2.6667,0.8 -5.6,2.1333 0,5.3334 -0.5334,10.4 -0.5333,5.0667 -1.0666,10.1334 -0.5334,5.6 -1.3334,10.9333 -0.5333,5.0667 -0.5333,10.4 -0.5333,10.9333 -1.0667,21.0667 -0.2666,10.1333 -0.8,20.2666 -0.5333,10.1334 -1.0666,20.5334 -0.5334,10.4 -1.3334,21.0666 0,2.9334 -0.2666,5.6 0,2.6667 0,5.3334 -0.2667,3.4666 -0.5334,6.9333 0,3.2 0,6.6667 0,4.5333 0.2667,8.8 0.2667,4.2666 1.6,8.2666 2.9333,-0.5333 5.8667,-0.5333 3.2,0 6.1333,-0.2667 4.2667,-0.2666 8.2667,-0.5333 4.2666,-0.2667 8,-1.0667 h 0.2666 v -0.2666 l -0.2666,-0.2667 q 0.2666,-2.1333 0.2666,-3.7333 0,-1.8667 0,-4 0,-4.8 -0.2666,-9.6 0,-5.0667 -0.2667,-9.8667 -0.2667,-4.8 -0.5333,-9.6 -0.2667,-5.0667 -0.2667,-9.8667 v -2.9333 -0.2667 h 0.2667 q 1.8666,-0.8 2.9333,0.2667 5.6,6.9333 10.1333,14.4 4.8,7.4667 9.0667,14.9333 3.7333,5.8667 7.2,12 3.7333,5.8667 8,11.4667 h 1.0667 q 1.0666,0 1.8666,-0.2667 1.0667,0 2.6667,-0.2666 4.5333,-0.5334 8.8,-1.0667 4.2667,-0.8 8.8,-1.6 -0.2667,-0.5333 -0.5333,-1.3333 0,-0.8 -0.5334,-1.3334 -0.5333,-1.3333 -1.0666,-2.4 -0.2667,-1.3333 -0.8,-2.6666 -3.4667,-6.1334 -6.9334,-12 -3.2,-5.8667 -6.4,-12 -3.2,-5.8667 -6.4,-11.7334 -3.2,-5.8666 -6.6666,-12 l -0.2667,-0.2666 0.2667,-0.2667 q 2.1333,-4 4,-8.2667 1.8666,-4.2666 3.4666,-8.5333 1.6,-4.2667 3.4667,-8.2667 1.8667,-4.2666 4,-8.5333 1.8667,-3.2 3.7333,-5.8667 1.8667,-2.4 3.4667,-4.8 1.6,-2.6666 2.1333,-5.6 -3.4666,-0.2666 -6.9333,-0.8 -3.2,-0.5333 -6.6667,-1.0666 l -2.6666,-0.5334 q -2.6667,-0.5333 -5.6,-0.2666 -2.6667,0 -5.0667,0.5333 -1.0667,5.3333 -3.7333,9.8667 -2.4,4.5333 -5.3334,9.0666 l -2.1333,3.4667 q -1.0667,1.6 -1.8667,3.4667 -0.5333,1.8666 -1.3333,3.7333 -1.0667,2.9333 -2.4,5.8667 -1.3333,2.9333 -4.2667,5.0666 l -0.5333,0.2667 v -0.2667 q -0.2667,-0.5333 -1.8667,-0.5333 -0.5333,0 -1.3333,0 -0.5333,0 -1.0667,-0.8 l -0.2666,-0.2667 q -1.3334,-7.7333 -1.6,-15.2 -0.2667,-7.7333 -0.2667,-15.4666 0,-13.8667 0.8,-27.4667 0.2667,-6.9333 0.5333,-13.6 0.2667,-6.9333 0.2667,-13.8667 0,-3.2 -0.2667,-6.4 0,-3.2 -0.2666,-6.1333 0,-0.2667 -0.5334,-0.8 -0.8,-0.8 -0.8,-1.3333 0,-0.2667 0,-0.2667 0.2667,0 0.2667,-0.2667 0,0 -0.2667,-0.2666 -4.8,1.6 -9.6,2.9333 z m 50.1334,96 q -1.3334,2.9333 -2.6667,6.4 -1.3333,3.2 -2.6667,6.4 0.5334,0 2.6667,0.2667 2.1333,0.2666 2.4,0.2666 0.8,-1.0666 1.8667,-3.2 l 0.2666,-0.8 q 15.4667,-24.5333 21.8667,-48.2666 -0.2667,0 -0.8,0 -0.2667,-0.2667 -0.5333,-0.2667 -4,2.6667 -5.8667,8.2667 -6.1333,6.9333 -9.8667,14.9333 -3.4666,8 -6.6666,16 z m -63.2,76.8 q -2.1334,0 -3.7334,0.2667 l -3.7333,0.5333 q -0.2667,0 -0.2667,0.2667 0,0 -0.2666,0 l -0.2667,0.2666 q -0.5333,1.0667 -1.3333,1.8667 -0.8,0.8 -1.0667,1.6 4.5333,-0.2667 9.3333,-0.2667 4.8,0 9.3334,-0.2666 4.8,0 9.0666,0 4.5334,-0.2667 9.0667,-0.5334 l -1.6,-2.4 q -1.6,-2.1333 -2.1333,-3.2 -5.3334,0.5334 -11.2,1.0667 -5.6,0.2667 -11.2,0.8 z m 25.8666,-25.6 q 0,1.3333 0,2.6667 0,1.0666 -0.2666,2.4 0,1.3333 0,2.6666 0.2666,1.0667 0.5333,2.4 0,1.3334 0,2.6667 0.2667,1.3333 0.2667,2.6667 0,2.9333 -0.8,4.8 v 0.2666 q -0.2667,0.2667 -0.5334,0.2667 0,0 -0.2666,0.2667 1.0666,0.5333 1.6,2.4 0.5333,1.6 0.8,1.8666 v -2.4 q 0,-0.8 0.2666,-1.8666 0,-1.8667 -0.2666,-3.7334 0,-1.8666 0,-4 0,-2.1333 0,-4.2666 0.2666,-2.1334 0.2666,-4.2667 0,-2.1333 0,-4 0.2667,-2.1333 0.2667,-4.2667 0,-5.0666 -0.5333,-9.6 -0.5334,-4.5333 -2.4,-9.0666 v 2.4 q 0,2.6666 0,5.0666 0.2666,2.4 0.5333,5.0667 0.2667,2.4 0.2667,4.8 0.2666,2.4 0.2666,4.8 z m 7.4667,-8.2667 q 0.5333,0.5334 0.5333,1.3334 0.2667,0.8 0.5334,1.3333 2.6666,4 5.0666,8.2667 2.4,4 4.5334,8 2.9333,5.3333 5.8666,10.4 2.9334,5.0666 6.6667,10.1333 0.8,-1.6 0.8,-3.4667 0,-2.9333 -1.8667,-5.6 -4.2666,-5.3333 -7.7333,-10.9333 -3.2,-5.6 -6.1333,-11.2 -2.9334,-5.3333 -6.1334,-10.4 -2.9333,-5.3333 -6.6666,-10.4 v 0.2667 q 0.5333,1.3333 0.8,2.4 0.2666,0.8 1.3333,1.0666 h 0.5333 l -0.2666,0.2667 v 0.8 q 0,2.1333 0.5333,4 0.8,1.8667 1.6,3.7333 z m 33.8667,-18.9333 q -1.6,-3.7333 -3.7334,-6.6667 -1.8666,-2.9333 -6.4,-1.6 2.1334,5.8667 5.3334,11.2 3.2,5.3334 6.6666,10.6667 l 0.5334,0.5333 v 0.2667 q 1.3333,3.7333 3.4666,7.4667 2.1334,3.4666 4.2667,6.9333 2.4,4 4.5333,8.2667 2.4,4 3.4667,8.8 h 1.0667 q 1.6,2.1333 2.6666,3.4666 1.0667,1.3334 1.6,2.4 0.8,1.0667 1.0667,1.0667 h 0.5333 q -0.2666,-0.5333 -0.2666,-0.8 0,-0.2667 -0.2667,-0.8 -0.2667,-0.5333 -0.2667,-1.0667 -4.2666,-10.6666 -9.0666,-20.2666 -4.8,-9.6 -10.1334,-19.7334 l -1.3333,-2.9333 q -1.3333,-1.3333 -2.1333,-3.2 -0.8,-1.8667 -1.6,-4 z m 18.1333,50.6667 q -6.1333,0.2666 -12.5333,1.0666 -6.1334,0.8 -12.2667,3.2 0,0.2667 -0.5333,1.8667 -0.5334,1.0667 -0.5334,1.8667 3.7334,-1.3334 8,-1.8667 4.2667,-0.8 8.5334,-1.3333 3.2,-0.2667 6.4,-0.5334 3.2,-0.5333 6.1333,-1.3333 -0.5333,-0.5333 -1.8667,-1.6 -1.0666,-1.3333 -1.3333,-1.3333 z M 2187.77,1062.0158 q -0.8,0.8 -2.1333,2.4 -1.0667,1.3333 -1.3333,1.6 0.2666,2.9333 0.2666,6.1333 0,2.9334 0,5.8667 0,10.1333 -0.2666,19.4667 -0.2667,9.3333 -0.5334,18.6666 -0.2666,5.3334 -0.5333,10.6667 0,5.3333 -0.2667,10.6667 0.5334,2.1333 0.5334,4.8 0,2.4 0.2666,4.8 0.2667,3.7333 0.2667,7.2 0.2667,3.4666 0.8,6.4 2.1333,-7.4667 2.9333,-14.6667 0.8,-7.4667 0.8,-15.2 0,-2.9333 0,-6.1333 0,-3.2 -0.2666,-6.4 l -0.2667,-8.5334 q -0.8,-7.2 -0.8,-14.4 0,-3.4666 0,-6.6666 0.2667,-3.2 0.2667,-6.4 0.2666,-3.2 0.2666,-6.4 0.2667,-3.2 0.2667,-6.1334 0,-2.1333 -0.2667,-4 0,-1.8666 0,-3.7333 z m 20.8,60.8 q 0.2667,0.5333 0.5334,1.0667 0.2666,0.2666 0.5333,0.8 4.2667,-0.5334 8,-0.2667 4,0.2667 8.2667,0.8 2.9333,0.5333 5.8666,0.8 3.2,0 6.4,0.2667 0.2667,-0.5334 1.3334,-1.0667 1.0666,-1.0667 1.0666,-1.0667 v -0.2666 q -6.6666,-1.8667 -13.8666,-2.4 -6.9334,-0.5334 -13.8667,-1.0667 h -2.4 q 0,0.2667 -0.5333,0.8 -0.2667,0 -0.8,0.5333 -0.5334,0.5334 -0.5334,1.0667 z m -20.8,37.8667 q -0.2666,0.8 -0.2666,1.6 0,0.8 -0.2667,1.6 v 0.5333 q 1.6,-2.1333 2.6667,-4.2667 1.0666,-2.4 2.1333,-4.5333 0.8,-1.6 1.3333,-3.2 0.8,-1.6 1.8667,-3.2 8,-10.9333 10.1333,-21.8667 -1.3333,2.4 -2.9333,4.8 -1.6,2.1334 -3.4667,4.2667 -1.8666,2.4 -3.7333,4.8 -1.6,2.1333 -2.9333,4.8 -0.5334,1.3333 -1.0667,2.9333 -0.5333,1.3334 -0.5333,2.6667 v 0.2667 q -1.0667,2.1333 -1.8667,4.5333 -0.5333,2.1333 -1.0667,4.2667 z"
           style="font-style:normal;font-variant:normal;font-weight:normal;font-stretch:normal;font-size:266.66665649px;font-family:'Key Tab Metal';-inkscape-font-specification:'Key Tab Metal';fill:#4e4e4e;fill-opacity:1;stroke:#4e4e4e;stroke-width:7;stroke-linecap:round;stroke-linejoin:round;stroke-miterlimit:4;stroke-dasharray:none;stroke-opacity:1"
           id="path2159" />
      </g>
    </g>
  </g>
</svg>
